{
"type": "FeatureCollection",
"name": "Burias_Pass2",
"crs": { "type": "name", "properties": { "name": "urn:ogc:def:crs:EPSG::4979" } },
"features": [
{ "type": "Feature", "properties": { "Id": 0, "F_PASSAGES": "Burias pass\r\nBurias Pass", "AREA__Sq_": "1393.2", "LOCATION": "Burias Island/Camarines Sur" }, "geometry": { "type": "MultiPolygon", "coordinates": [ [ [ [ 123.087186133000031, 13.485242282000094 ], [ 123.087863062000082, 13.485008857000032 ], [ 123.088386779962221, 13.485024558915107 ], [ 123.088875704510144, 13.484976537044014 ], [ 123.089706790094226, 13.484665221201919 ], [ 123.090391182263872, 13.484330030830854 ], [ 123.091564394193981, 13.483683640531378 ], [ 123.092664535636274, 13.483755010847819 ], [ 123.093813394339307, 13.483371790055481 ], [ 123.096135451890902, 13.482366077049063 ], [ 123.09664635999907, 13.482289322097815 ], [ 123.097218363547469, 13.482159908262709 ], [ 123.097694994793017, 13.481958756338349 ], [ 123.098252305450686, 13.481771926740624 ], [ 123.098662911150754, 13.481527734460309 ], [ 123.098970854539772, 13.481319468945197 ], [ 123.099220143063405, 13.481154290580346 ], [ 123.099550155833896, 13.481111095632897 ], [ 123.099880105893121, 13.480917175062615 ], [ 123.10023937646227, 13.480687355401839 ], [ 123.10057664736874, 13.480464721429966 ], [ 123.100847941875259, 13.480313887420362 ], [ 123.101233629252732, 13.480122813643264 ], [ 123.101717556685458, 13.479849877244856 ], [ 123.102274847072792, 13.479634329184263 ], [ 123.10252417745069, 13.479576808399695 ], [ 123.102861518327614, 13.479526428731116 ], [ 123.103110839219738, 13.479447375194994 ], [ 123.103382127889688, 13.479289361065081 ], [ 123.103712069240018, 13.479088258081925 ], [ 123.103968686116218, 13.478923071985584 ], [ 123.104195991752462, 13.478815316920858 ], [ 123.104474591108058, 13.478607056838751 ], [ 123.104657848916574, 13.478398836190657 ], [ 123.104921735722726, 13.478090098256292 ], [ 123.105039003210436, 13.477917791841724 ], [ 123.10526629799223, 13.47778850363842 ], [ 123.10556695362655, 13.477709426153476 ], [ 123.105808959922356, 13.477680614763905 ], [ 123.10610957092166, 13.477501053163413 ], [ 123.106388170264978, 13.47729996835114 ], [ 123.106556802146756, 13.477192235996581 ], [ 123.106586051860262, 13.476998434002395 ], [ 123.106651980466964, 13.476826148609289 ], [ 123.106710571922548, 13.476646688921663 ], [ 123.106842454171257, 13.476359537172808 ], [ 123.107041853566031, 13.476175711043535 ], [ 123.10757702957352, 13.475737661500597 ], [ 123.108192966148835, 13.47550054304495 ], [ 123.108977563369947, 13.475227463018044 ], [ 123.109446859950665, 13.475076533772471 ], [ 123.110114169098892, 13.474925516946122 ], [ 123.111368192637869, 13.474795771143546 ], [ 123.111887400146657, 13.474738121322183 ], [ 123.11248876958642, 13.474730675402071 ], [ 123.113126848536155, 13.474809340220078 ], [ 123.113764917710355, 13.474866471243091 ], [ 123.114278315648122, 13.474930834772762 ], [ 123.114755072125234, 13.475052633121233 ], [ 123.115305184544852, 13.475210283860534 ], [ 123.115627917817406, 13.475303441619683 ], [ 123.115869948061146, 13.47533203967604 ], [ 123.116075267651183, 13.475274525770676 ], [ 123.116258585657434, 13.475217021880045 ], [ 123.116595872195163, 13.475073317756991 ], [ 123.116867157439856, 13.474936821283338 ], [ 123.117204411754216, 13.474728519841571 ], [ 123.117754282654417, 13.4743909253504 ], [ 123.118164809954934, 13.474053395229795 ], [ 123.118474161713621, 13.473780508686357 ], [ 123.118730677719228, 13.473443050210758 ], [ 123.119001899571415, 13.473184535812679 ], [ 123.119339110422729, 13.472897280223139 ], [ 123.119896311447846, 13.472566854961554 ], [ 123.120475530107825, 13.472272304871378 ], [ 123.12091549664855, 13.47215725528619 ], [ 123.121172166484712, 13.472135599476145 ], [ 123.121406827835145, 13.472099599255113 ], [ 123.121685473353807, 13.472027690562703 ], [ 123.122037408667296, 13.471862439890698 ], [ 123.122242701915752, 13.471761856627948 ], [ 123.122601970168773, 13.471596601600853 ], [ 123.123185395935593, 13.471174644532944 ], [ 123.123503024019328, 13.470851506011501 ], [ 123.12382065740367, 13.470540329404429 ], [ 123.124113825884152, 13.470193277517897 ], [ 123.124333712502803, 13.469953922432023 ], [ 123.124565877156456, 13.469822221949991 ], [ 123.124895829859653, 13.469702434999103 ], [ 123.12533573721754, 13.469486894247261 ], [ 123.125800089263649, 13.469271340494394 ], [ 123.126337682686923, 13.468876314278679 ], [ 123.126606456717951, 13.46863693263032 ], [ 123.126850784822537, 13.46839756303271 ], [ 123.127119646231577, 13.468325653280042 ], [ 123.127327375057661, 13.468217887253694 ], [ 123.127828397226281, 13.468014273509786 ], [ 123.128219510108693, 13.467990149666594 ], [ 123.129026225838402, 13.468025623827135 ], [ 123.129344034686952, 13.468061347451489 ], [ 123.129686269654201, 13.468061171112781 ], [ 123.130077298383455, 13.467881534267702 ], [ 123.130399873157316, 13.467689970017695 ], [ 123.13097412985509, 13.467306877227855 ], [ 123.131572856102323, 13.466971619603964 ], [ 123.132305864995544, 13.466337231918926 ], [ 123.133381121463486, 13.465738547712643 ], [ 123.134346376487812, 13.465151880051872 ], [ 123.135177333751344, 13.464840414313338 ], [ 123.135580555393062, 13.464624875426409 ], [ 123.135800411994509, 13.464361585720345 ], [ 123.135922488331843, 13.464098348699837 ], [ 123.135983479122544, 13.46388299394542 ], [ 123.136056604408751, 13.463512122431887 ], [ 123.136251926650729, 13.463093335416186 ], [ 123.136410682638228, 13.462854002907866 ], [ 123.136471611688336, 13.462530987156208 ], [ 123.136520379221452, 13.462315638886167 ], [ 123.136691465419318, 13.462267696654692 ], [ 123.136874828305324, 13.462315446201925 ], [ 123.137082683687012, 13.462446918516818 ], [ 123.137229420503004, 13.462566461697207 ], [ 123.137388304809889, 13.462554412615821 ], [ 123.137583787951371, 13.462422720196058 ], [ 123.137840300635048, 13.462147446317934 ], [ 123.138060145655956, 13.461872192311281 ], [ 123.138201748637755, 13.461564682852918 ], [ 123.138311550543818, 13.461217715139018 ], [ 123.13838474706013, 13.460978428420269 ], [ 123.138421262782273, 13.460715237223495 ], [ 123.138457757802044, 13.460416159058621 ], [ 123.138237660573935, 13.460248807609071 ], [ 123.138066425301417, 13.460033579847986 ], [ 123.137985518549101, 13.459614942913598 ], [ 123.138004915170171, 13.459337406348896 ], [ 123.137779998765481, 13.459289680362607 ], [ 123.137574583364128, 13.459146244910512 ], [ 123.137633184423066, 13.459031374532021 ], [ 123.137770045870781, 13.458983450303219 ], [ 123.138004673980959, 13.458916332656377 ], [ 123.138239356866336, 13.458944913358865 ], [ 123.13838600690076, 13.458916123135285 ], [ 123.138473946303321, 13.458810806278926 ], [ 123.138522758089394, 13.458676801364396 ], [ 123.138640003071643, 13.458523619008732 ], [ 123.138727909160849, 13.45836088292126 ], [ 123.138825603897502, 13.458217281119783 ], [ 123.138972203740181, 13.45810236184472 ], [ 123.13896235425743, 13.457977959104662 ], [ 123.138854749607148, 13.457891889786408 ], [ 123.138766694966037, 13.457796239776021 ], [ 123.138805717647315, 13.4576431004783 ], [ 123.139050110825423, 13.45755683675398 ], [ 123.139323814817573, 13.457432277118629 ], [ 123.139489997048443, 13.457365195996683 ], [ 123.139617007389276, 13.457192868044775 ], [ 123.139753750837684, 13.456943975735676 ], [ 123.140007859481827, 13.4567524372204 ], [ 123.140144630106363, 13.456551393985288 ], [ 123.140320533441781, 13.456388608293304 ], [ 123.140506163979538, 13.456139688296904 ], [ 123.140711489115205, 13.456130003672943 ], [ 123.140897152620127, 13.455938502536316 ], [ 123.141102371104836, 13.455746990295259 ], [ 123.141522652153341, 13.455478798108047 ], [ 123.141778653125186, 13.455184859229574 ], [ 123.142101156403299, 13.454916721162391 ], [ 123.142345483440963, 13.454725185816875 ], [ 123.142570260575326, 13.454543231175343 ], [ 123.14271683372607, 13.454390030290979 ], [ 123.142951376489037, 13.454188930046879 ], [ 123.143195764651537, 13.454102662320778 ], [ 123.143430403545011, 13.454064249223775 ], [ 123.143743348502269, 13.454169339104094 ], [ 123.143782567260672, 13.45435114405786 ], [ 123.143939145698994, 13.45458073119196 ], [ 123.144359719583434, 13.454810166881915 ], [ 123.144633566983302, 13.45493441778736 ], [ 123.145200765957568, 13.455096778696118 ], [ 123.155485473505678, 13.44923148700966 ], [ 123.178452006574901, 13.435339960238359 ], [ 123.190663169846985, 13.422890196827954 ], [ 123.194786773007692, 13.412034322225967 ], [ 123.19944011757093, 13.396566264833329 ], [ 123.199425543442516, 13.378861986165095 ], [ 123.20039152904414, 13.36498487053229 ], [ 123.204283797989021, 13.34440645540243 ], [ 123.21013691170144, 13.331960777743314 ], [ 123.217460804767128, 13.325734157843099 ], [ 123.2242913118464, 13.314722802294551 ], [ 123.230141803252764, 13.301319668511956 ], [ 123.232572329915158, 13.28839804119689 ], [ 123.24526048657485, 13.274509717480422 ], [ 123.253072743515631, 13.27067409993542 ], [ 123.268692307967825, 13.259174185063985 ], [ 123.281273282000029, 13.25854106500004 ], [ 123.140538225000114, 12.989850723000123 ], [ 123.138156689748968, 12.998101703808894 ], [ 123.136402209640934, 13.002158004560739 ], [ 123.137222480122418, 13.007445107622791 ], [ 123.12942073504901, 13.01917260429221 ], [ 123.118203715131003, 13.03449026190815 ], [ 123.112103906581609, 13.036095978901747 ], [ 123.10869040710989, 13.042557307181477 ], [ 123.101372455242398, 13.049737910539115 ], [ 123.096497858369034, 13.065530559406383 ], [ 123.08527697881641, 13.081564528827945 ], [ 123.077469055062267, 13.088744606998684 ], [ 123.064782482550171, 13.10908467021985 ], [ 123.046725336854379, 13.140191508166664 ], [ 123.029636856764498, 13.142825828832724 ], [ 123.016209800586807, 13.142827025920672 ], [ 123.005224219012234, 13.151919096672042 ], [ 122.996923425276506, 13.161967748652769 ], [ 122.989599068327834, 13.160532040174832 ], [ 122.986913959215229, 13.151201057896323 ], [ 122.981542918523942, 13.151679234011139 ], [ 122.980077671183963, 13.15694268682055 ], [ 122.975682827470678, 13.159813341319298 ], [ 122.971044098812754, 13.159573607472293 ], [ 122.967382590489791, 13.154548860662485 ], [ 122.963476777639016, 13.151677301235255 ], [ 122.957617982457364, 13.148805367387952 ], [ 122.952003222658362, 13.147129609968845 ], [ 122.943215829418463, 13.141146495778315 ], [ 122.946391239547381, 13.133012573079517 ], [ 122.951274223071721, 13.12990325268715 ], [ 122.953715959961343, 13.126793411111521 ], [ 122.950298626966358, 13.125596507552727 ], [ 122.942731346433774, 13.124877175520163 ], [ 122.935896936100079, 13.122243778428579 ], [ 122.928482377999984, 13.113311209000091 ], [ 122.89393066, 13.140318495000043 ], [ 122.89402043100003, 13.140346618000045 ], [ 122.894120501069395, 13.140384499229128 ], [ 122.894197326806562, 13.14055679281474 ], [ 122.894186178179794, 13.140937200061417 ], [ 122.894186101304228, 13.14111663957012 ], [ 122.894193363900854, 13.141259476430852 ], [ 122.89429216134296, 13.141431779018532 ], [ 122.894409266889568, 13.141607677876269 ], [ 122.894672741584913, 13.142034852019023 ], [ 122.894822775831202, 13.142278951190734 ], [ 122.895607405103377, 13.142847496110276 ], [ 122.895729140740997, 13.143625116750304 ], [ 122.896430684616249, 13.144402971522975 ], [ 122.897315131584421, 13.145659402809052 ], [ 122.895910888225487, 13.146825194648192 ], [ 122.894812065491777, 13.147363065714146 ], [ 122.892889237533552, 13.148020216248861 ], [ 122.889623423646754, 13.149215097255517 ], [ 122.8863270477447, 13.150439829458533 ], [ 122.883787490894832, 13.151605049293202 ], [ 122.880033296517666, 13.1528294925774 ], [ 122.879270366314159, 13.152829135222991 ], [ 122.878660110404539, 13.152649408459888 ], [ 122.876401434365633, 13.153455808594856 ], [ 122.874386608683849, 13.154800625760185 ], [ 122.871362248358068, 13.160807350870313 ], [ 122.870017682491223, 13.16415620368206 ], [ 122.868917931615286, 13.166189287161963 ], [ 122.867939020871248, 13.170495321545447 ], [ 122.865373889668888, 13.173245385718987 ], [ 122.861955547425993, 13.173482821128236 ], [ 122.859818342566157, 13.173497612416385 ], [ 122.858382699437286, 13.173487253912249 ], [ 122.858304761556596, 13.173152258320723 ], [ 122.85839277380208, 13.172951335371707 ], [ 122.858090090312842, 13.172826757182076 ], [ 122.857855737999856, 13.172759636942425 ], [ 122.857699444235678, 13.172816970746887 ], [ 122.857357431000068, 13.172809287000119 ], [ 123.087186133000031, 13.485242282000094 ] ] ] ] } }
]
}
