{
"type": "FeatureCollection",
"name": "Camotes_Sea",
"crs": { "type": "name", "properties": { "name": "urn:ogc:def:crs:OGC:1.3:CRS84" } },
"features": [
{ "type": "Feature", "properties": { "Id": 0 }, "geometry": { "type": "MultiPolygon", "coordinates": [ [ [ [ 124.513904366529474, 10.268741596451044 ], [ 124.213921506865248, 10.265402477203548 ], [ 124.162191849947206, 10.267321073959899 ], [ 124.112951589147173, 10.278978080580785 ], [ 124.036961647796971, 10.360686773156049 ], [ 124.027728976455705, 10.43239677039673 ], [ 124.035852356282788, 10.472631744885874 ], [ 124.059191362106887, 10.577080337097023 ], [ 124.261997578354311, 10.577008584506585 ], [ 124.484197863373367, 10.57404858958736 ], [ 124.644749976239154, 10.504385675297105 ], [ 124.669065924298579, 10.378971376170034 ], [ 124.634805993647831, 10.294946331254881 ], [ 124.513904366529474, 10.268741596451044 ] ] ] ] } }
]
}
