{
"type": "FeatureCollection",
"name": "Panay_Gulf",
"crs": { "type": "name", "properties": { "name": "urn:ogc:def:crs:OGC:1.3:CRS84" } },
"features": [
{ "type": "Feature", "properties": { "Id": 0 }, "geometry": { "type": "MultiPolygon", "coordinates": [ [ [ [ 122.546848398311738, 10.374158655489239 ], [ 122.60486384174061, 10.367056404096115 ], [ 122.635671974939484, 10.373374274739179 ], [ 122.699074084400252, 10.418307884651469 ], [ 122.740759356354658, 10.434496862731699 ], [ 122.796952166872558, 10.454279499933492 ], [ 122.806877450524595, 10.429404344074056 ], [ 122.83689487234048, 10.353797253669763 ], [ 122.822432105238903, 10.285589357913487 ], [ 122.822486982312284, 10.186878001294577 ], [ 122.837020336486745, 10.107915973942717 ], [ 122.780880726995605, 10.095320078867669 ], [ 122.722965209687558, 10.046818033544367 ], [ 122.636093506697904, 10.001865284704062 ], [ 122.532886698155011, 10.003531159381359 ], [ 122.482212874493925, 9.989098425555502 ], [ 122.448428476351552, 9.982164495010212 ], [ 122.444534703109355, 9.965108292307026 ], [ 122.438201004492925, 9.963602107647425 ], [ 122.434895927060609, 9.955520346251994 ], [ 122.441244709966213, 9.948053057292862 ], [ 122.438547180010772, 9.937579393936126 ], [ 122.433759026579082, 9.914838322511915 ], [ 122.427144905359867, 9.901665882223261 ], [ 122.419907510635085, 9.90015787451496 ], [ 122.409672774620759, 9.887876218605983 ], [ 122.403966119436191, 9.874106737521004 ], [ 122.399754519058988, 9.86781778692832 ], [ 122.39735665462706, 9.859438210637975 ], [ 122.392837605169063, 9.856498755736094 ], [ 122.388861226747281, 9.853739697793641 ], [ 122.381385242319212, 9.851452790990233 ], [ 122.376336229321851, 9.84175211294224 ], [ 122.365973389844171, 9.835152267776703 ], [ 122.363808310140428, 9.832094621347048 ], [ 121.925244228219626, 9.835069238880205 ], [ 121.920662785635315, 10.275039696175282 ], [ 121.942295498709413, 10.27158406122569 ], [ 121.965902048151406, 10.270475429389888 ], [ 121.987011048014168, 10.272700413245714 ], [ 122.004756919898568, 10.27714776584823 ], [ 122.025587007488681, 10.285477503761145 ], [ 122.047256275218103, 10.298808859868913 ], [ 122.09781406485618, 10.338249643638312 ], [ 122.117285990460289, 10.357691666760406 ], [ 122.133096704763375, 10.373815033532031 ], [ 122.141705405802483, 10.385475333704326 ], [ 122.053124918131616, 10.463244479473252 ], [ 122.030347836153666, 10.466809116042947 ], [ 122.030287765, 10.466848482000039 ], [ 122.030287770000058, 10.466872050000038 ], [ 122.030297589000028, 10.466922685000041 ], [ 122.030304966, 10.467031192000032 ], [ 122.030309875000029, 10.467057716000079 ], [ 122.030317250000039, 10.467149344000063 ], [ 122.030324615000012, 10.467197568000083 ], [ 122.030333456000079, 10.467293742000056 ], [ 122.030345731000025, 10.467370901000049 ], [ 122.030362912000086, 10.467455293000091 ], [ 122.030367823, 10.467486639000096 ], [ 122.030370280000028, 10.467515574000066 ], [ 122.030375190000058, 10.467542097000036 ], [ 122.03037523700003, 10.467783227000043 ], [ 122.030382611000022, 10.467874855000083 ], [ 122.030382619000065, 10.467908613000107 ], [ 122.030480838999978, 10.468613574000088 ], [ 122.030570155000063, 10.469085851000056 ], [ 122.030611890000031, 10.469334206000079 ], [ 122.030656049000044, 10.469437883000079 ], [ 122.040329917901161, 10.472221455335101 ], [ 122.060611772587961, 10.480417026559252 ], [ 122.085627216682354, 10.523558276619411 ], [ 122.10440213633548, 10.552802753092195 ], [ 122.149369617614113, 10.561780000818693 ], [ 122.229040557198061, 10.614026984663484 ], [ 122.332388167867592, 10.637593248326642 ], [ 122.379534876550906, 10.648457723313886 ], [ 122.42585835816638, 10.653595411252255 ], [ 122.468405585246813, 10.664772810229737 ], [ 122.53836584477709, 10.658238968086447 ], [ 122.497532478504738, 10.605597436203091 ], [ 122.457781302454379, 10.515799004154687 ], [ 122.456124241605835, 10.426063243696541 ], [ 122.48156216959805, 10.392006715864822 ], [ 122.546848398311738, 10.374158655489239 ] ] ] ] } }
]
}
