{
"type": "FeatureCollection",
"name": "Sibugay_Bay",
"crs": { "type": "name", "properties": { "name": "urn:ogc:def:crs:OGC:1.3:CRS84" } },
"features": [
{ "type": "Feature", "properties": { "Id": 0 }, "geometry": { "type": "MultiPolygon", "coordinates": [ [ [ [ 122.691919500244893, 7.788617110000943 ], [ 122.691958519498783, 7.78858423050573 ], [ 122.692036488069434, 7.788614203382627 ], [ 122.692111487602006, 7.788602291369756 ], [ 122.692141492656134, 7.788590346669859 ], [ 122.692180564305403, 7.788485668243089 ], [ 122.692177689157973, 7.788315143652007 ], [ 122.692156744166979, 7.788243329494009 ], [ 122.692243748697265, 7.788222451303435 ], [ 122.692282826833093, 7.788108797999074 ], [ 122.692300927201018, 7.787968204858068 ], [ 122.692474979760419, 7.787866615965266 ], [ 122.69251716212662, 7.787609366978546 ], [ 122.692535273294396, 7.787453815712783 ], [ 122.692505342497199, 7.787364045313373 ], [ 122.692607386375116, 7.78728633710717 ], [ 122.692691463003044, 7.787166733127954 ], [ 122.692841348216803, 7.787298473158813 ], [ 122.692937174951439, 7.787519922687694 ], [ 122.692816993856567, 7.78778908171278 ], [ 122.692684883857623, 7.787962500109671 ], [ 122.692642784410339, 7.788106067496512 ], [ 122.692612583132686, 7.788387258162234 ], [ 122.692624498785037, 7.788500948475313 ], [ 122.692780457808738, 7.788530977758646 ], [ 122.69300243053452, 7.788531138566209 ], [ 122.693098453580447, 7.788483342124237 ], [ 122.693158476681305, 7.788441502850282 ], [ 122.693260420606165, 7.788501409088965 ], [ 122.693326416847057, 7.788495473590695 ], [ 122.693368450844176, 7.788441654779544 ], [ 122.693344532119795, 7.788333939043434 ], [ 122.693428569614866, 7.788268184113689 ], [ 122.693410711043555, 7.788076707311852 ], [ 122.693422853104778, 7.787879268957217 ], [ 122.693320913653594, 7.787813379517363 ], [ 122.693423061894961, 7.787592073271588 ], [ 122.693597192292088, 7.787382785514412 ], [ 122.693813134774999, 7.78742482424472 ], [ 122.693921125575656, 7.787418918972049 ], [ 122.694107136972661, 7.787371187239745 ], [ 122.694203229049279, 7.78722765862547 ], [ 122.694353179822514, 7.787269649479406 ], [ 122.694473173407232, 7.787257769469449 ], [ 122.694407316106222, 7.787072241341528 ], [ 122.694545372364161, 7.786970625615851 ], [ 122.694701356977944, 7.78696475471178 ], [ 122.694773408499856, 7.786881041119617 ], [ 122.694761483633968, 7.786779317326483 ], [ 122.694707538124291, 7.786713462765612 ], [ 122.694785627805459, 7.786575904287255 ], [ 122.694587692009009, 7.786521912538285 ], [ 122.69460578069291, 7.786396277367073 ], [ 122.694803768387189, 7.786378470170578 ], [ 122.694833868449166, 7.786234893887547 ], [ 122.694882009458169, 7.786031498103562 ], [ 122.694858215979082, 7.785750268332035 ], [ 122.694936249168606, 7.785690491994426 ], [ 122.694906530009959, 7.785307542740751 ], [ 122.695014580824406, 7.785217871736872 ], [ 122.695248826918757, 7.784835112234127 ], [ 122.695290885792573, 7.784745992051989 ], [ 122.695398966620743, 7.784614438221084 ], [ 122.695471060778374, 7.784470892025143 ], [ 122.69539319637218, 7.784297321902205 ], [ 122.695375285162683, 7.784177644065948 ], [ 122.695507271933124, 7.784171755589139 ], [ 122.69562738547441, 7.783992344335471 ], [ 122.695681520687771, 7.783794935965154 ], [ 122.695621619360693, 7.783669244758277 ], [ 122.695729660967615, 7.783591540035014 ], [ 122.695837952693125, 7.783166807012107 ], [ 122.695700018828873, 7.783100892348774 ], [ 122.695802181860117, 7.782855652403691 ], [ 122.695754287610669, 7.782718003324786 ], [ 122.695922337997629, 7.782616408573256 ], [ 122.69576648008875, 7.782448765849919 ], [ 122.695838586662532, 7.782287269818799 ], [ 122.695700683280918, 7.782179472440085 ], [ 122.695748775887651, 7.782041892194861 ], [ 122.695838789344648, 7.782006057239093 ], [ 122.695898789684918, 7.78199413375054 ], [ 122.696030861961006, 7.781868580152628 ], [ 122.695533237340598, 7.781443412630532 ], [ 122.695665335428487, 7.781281959661604 ], [ 122.696061081877957, 7.781557472817544 ], [ 122.696157072833429, 7.781551558319443 ], [ 122.696366970447826, 7.781653423827326 ], [ 122.696504886749509, 7.781743271251466 ], [ 122.696576997216127, 7.781575791827008 ], [ 122.696690972771108, 7.781587839819213 ], [ 122.696757036683522, 7.781486171788425 ], [ 122.696835090294755, 7.781396478812979 ], [ 122.696961089915575, 7.781372635820571 ], [ 122.697051124608322, 7.781306884360591 ], [ 122.697201103670892, 7.781306991417414 ], [ 122.697375113707096, 7.781259249557117 ], [ 122.697549106555996, 7.781235440614184 ], [ 122.697723090817661, 7.781223598094527 ], [ 122.697831088578752, 7.781205725265689 ], [ 122.697927169371226, 7.781074162158788 ], [ 122.698047088357171, 7.781163996276618 ], [ 122.698395022597481, 7.781188176738309 ], [ 122.698598951363749, 7.781248154156073 ], [ 122.69880876833875, 7.781463700190639 ], [ 122.69924656673777, 7.781661458038354 ], [ 122.699360529633083, 7.781691455062542 ], [ 122.699618332085038, 7.781919001218001 ], [ 122.699828035012118, 7.782296094485643 ], [ 122.699923719780216, 7.782720973034768 ], [ 122.699983566986148, 7.782924445913808 ], [ 122.700067504571038, 7.782996304285843 ], [ 122.700295414227455, 7.783080230885721 ], [ 122.70045131669913, 7.783188039531776 ], [ 122.700997171024397, 7.783290139913311 ], [ 122.701333058066325, 7.78338610856783 ], [ 122.701596984539634, 7.783440143580687 ], [ 122.702034913129751, 7.783458401178257 ], [ 122.702226904287159, 7.783434602985496 ], [ 122.702436864741287, 7.783450905102997 ], [ 122.702544867140332, 7.783427047840486 ], [ 122.702670824951994, 7.783463035663194 ], [ 122.703816768088771, 7.783326222517773 ], [ 122.703906693032536, 7.783416034096645 ], [ 122.703978616224262, 7.783511816348718 ], [ 122.704098554020916, 7.783577715818886 ], [ 122.704182479878583, 7.783667523157519 ], [ 122.704278332882595, 7.783859054105006 ], [ 122.704374152431811, 7.784098451036622 ], [ 122.704416008542651, 7.784295927570615 ], [ 122.704391915283097, 7.784433525607274 ], [ 122.704343808382092, 7.784595039915385 ], [ 122.70428971061466, 7.784744583532051 ], [ 122.704295634339232, 7.784852286219931 ], [ 122.704421555010939, 7.784942122794821 ], [ 122.704469431392155, 7.785109687249398 ], [ 122.705290409152184, 7.786420591048832 ], [ 122.705446389385472, 7.786420699428729 ], [ 122.705644389354248, 7.786384937401825 ], [ 122.705800419660505, 7.786313246643106 ], [ 122.705968460903421, 7.786223614392268 ], [ 122.705908572825606, 7.786073991520023 ], [ 122.70580669433123, 7.785918356257181 ], [ 122.705902752976229, 7.785816707573665 ], [ 122.706004806634667, 7.785721046276248 ], [ 122.706166756674222, 7.785763041297776 ], [ 122.706065182501405, 7.785170628765495 ], [ 122.706365310211211, 7.784931506502983 ], [ 122.706689293007855, 7.784895831162446 ], [ 122.70715734837583, 7.784728623472303 ], [ 122.70750541909986, 7.784561332522642 ], [ 122.707793563738846, 7.784298267912454 ], [ 122.70820176665157, 7.783927587102093 ], [ 122.70812992270352, 7.783715730428394 ], [ 122.708034076228955, 7.783512233780659 ], [ 122.707962243196008, 7.783284820623155 ], [ 122.70821453217205, 7.782818300287688 ], [ 122.708478711477227, 7.782507352599298 ], [ 122.708526795881895, 7.782375754004788 ], [ 122.70843112311249, 7.781920960800101 ], [ 122.708299430694325, 7.781502042347235 ], [ 122.708215541571818, 7.781358386517092 ], [ 122.708299877295417, 7.780855850973612 ], [ 122.708348159988773, 7.780437056208916 ], [ 122.708648522516867, 7.779850903374602 ], [ 122.708660760310835, 7.779503882875297 ], [ 122.708757002520414, 7.779132986994198 ], [ 122.709105356534806, 7.778546866673598 ], [ 122.709513544359069, 7.778188150762438 ], [ 122.709897595245408, 7.778032848705971 ], [ 122.710101614722646, 7.777961188992732 ], [ 122.71040167752281, 7.777805829096859 ], [ 122.710785694974632, 7.777698392255351 ], [ 122.711091723717729, 7.777590901988472 ], [ 122.71148777993173, 7.777423640100602 ], [ 122.711751839021957, 7.777280221262167 ], [ 122.711715958712773, 7.777112665641201 ], [ 122.711824089696876, 7.776897341721738 ], [ 122.712052121072063, 7.776801764296225 ], [ 122.712291995659598, 7.776933558633737 ], [ 122.712543868621552, 7.777065360964762 ], [ 122.712579667809223, 7.777352581664499 ], [ 122.712387516828002, 7.777615714939326 ], [ 122.712375371870309, 7.777831104047446 ], [ 122.712507376984234, 7.777795293914108 ], [ 122.712711281964218, 7.777891164114257 ], [ 122.712458870612593, 7.778549151728447 ], [ 122.712470518442345, 7.779063719901851 ], [ 122.712578323710559, 7.779327056319758 ], [ 122.712746201999693, 7.77947076819583 ], [ 122.712721904113252, 7.77991351291399 ], [ 122.713021775441916, 7.780040560893929 ], [ 122.713069589717179, 7.780303856622266 ], [ 122.713153464066892, 7.780471444577833 ], [ 122.713081034896859, 7.781117587568239 ], [ 122.71306863792438, 7.781703938535561 ], [ 122.713068450799042, 7.781979168302559 ], [ 122.712624128436289, 7.782541293848693 ], [ 122.712611926316157, 7.782840448487156 ], [ 122.712948125317979, 7.782481680614242 ], [ 122.713248092842747, 7.782469916955722 ], [ 122.713559888156695, 7.782709457931526 ], [ 122.713763917483618, 7.782625830021343 ], [ 122.714015924026654, 7.782566167389788 ], [ 122.714351813843976, 7.782662125827835 ], [ 122.714555762059121, 7.782698162657281 ], [ 122.714939669916305, 7.782758253388582 ], [ 122.715239282309426, 7.783273014909115 ], [ 122.71557511249857, 7.783458721255926 ], [ 122.715964819034809, 7.783817977950248 ], [ 122.716684603529359, 7.783997957117467 ], [ 122.7176144813196, 7.783998577201498 ], [ 122.718664283586151, 7.784089023717895 ], [ 122.719174316318444, 7.783939780181031 ], [ 122.719384527495833, 7.78358092363159 ], [ 122.719654849583463, 7.783042608844584 ], [ 122.719715219123927, 7.782474238881208 ], [ 122.720015277932035, 7.782324855467831 ], [ 122.72064543046055, 7.781966275133295 ], [ 122.721395763019714, 7.781308609609892 ], [ 122.722115782283566, 7.781129583875155 ], [ 122.722925690350507, 7.781100197193181 ], [ 122.723855875413918, 7.780622142438852 ], [ 122.724246133974418, 7.780143735061576 ], [ 122.724517033254713, 7.778707927423671 ], [ 122.723857712876097, 7.777813000876427 ], [ 122.723858319342838, 7.776885595167254 ], [ 122.724608618280399, 7.776257839628792 ], [ 122.72514968632801, 7.774493126658191 ], [ 122.72509014328763, 7.773805012448521 ], [ 122.725630603650572, 7.772967704540278 ], [ 122.726651101764361, 7.771951206965684 ], [ 122.72740094384649, 7.772011521489644 ], [ 122.727911575484512, 7.770904944132214 ], [ 122.728542280743724, 7.769648860998601 ], [ 122.729172598851406, 7.768991103499381 ], [ 122.729533113310097, 7.768093842542299 ], [ 122.730254633598889, 7.765521494462018 ], [ 122.731065082355059, 7.76459460072362 ], [ 122.731935194559554, 7.764176321086365 ], [ 122.732445520541972, 7.763518482457282 ], [ 122.733225569924386, 7.763219808840976 ], [ 122.733823801201211, 7.763317910501694 ], [ 122.734389973635757, 7.763519302507133 ], [ 122.734476310149901, 7.763595942332358 ], [ 122.734658620596065, 7.763687001894773 ], [ 122.734816899381798, 7.763835485828138 ], [ 122.734946398380671, 7.76396001867024 ], [ 122.735128700097505, 7.764065437890993 ], [ 122.735264206437137, 7.764176811178795 ], [ 122.735477592066616, 7.764459354527708 ], [ 122.735681645873072, 7.76431588283495 ], [ 122.73576315971259, 7.764430812368085 ], [ 122.735535081664054, 7.764619742041295 ], [ 122.735642904128056, 7.764873499923948 ], [ 122.735743807592286, 7.764679704558668 ], [ 122.735851749770347, 7.764741997685238 ], [ 122.735830107221432, 7.764816176842154 ], [ 122.735897302917252, 7.764804252037052 ], [ 122.73592616809816, 7.76469178440537 ], [ 122.735983757987825, 7.764691820168864 ], [ 122.736009939744747, 7.765034079725927 ], [ 122.736005049458726, 7.765180068585305 ], [ 122.736024180385286, 7.765285386092978 ], [ 122.736124843376842, 7.765476913362028 ], [ 122.736098404652907, 7.76554630293405 ], [ 122.736067177505831, 7.76559845770123 ], [ 122.73612471973486, 7.765675079331483 ], [ 122.736055079510123, 7.7657588019412 ], [ 122.736119811553479, 7.765849787894205 ], [ 122.736225347033454, 7.765924045988905 ], [ 122.736302059161829, 7.766043759065242 ], [ 122.736382662000082, 7.766068963000067 ], [ 122.736397884000084, 7.766068963000059 ], [ 122.736455391000035, 7.766142700000067 ], [ 122.736424946999989, 7.766166162000079 ], [ 122.736423255000062, 7.766174541000062 ], [ 122.736426638, 7.766189623000071 ], [ 122.736440169000019, 7.766219788000052 ], [ 122.736446935000089, 7.766229843000075 ], [ 122.736455392000011, 7.766236547000054 ], [ 122.736470614000012, 7.766239898000037 ], [ 122.73649936700005, 7.766253305000013 ], [ 122.736517972000101, 7.766249953000071 ], [ 122.736583935000098, 7.766234870000086 ], [ 122.736609305000073, 7.766226490000085 ], [ 122.736661737000034, 7.766206380000054 ], [ 122.736714168000034, 7.766182917000052 ], [ 122.736742921000086, 7.766172862000083 ], [ 122.736805501000021, 7.766157779000027 ], [ 122.736834254000058, 7.766149399000041 ], [ 122.736905290000081, 7.766124261000086 ], [ 122.736971253000078, 7.766107502000071 ], [ 122.737020301, 7.766084040000102 ], [ 122.736805053836648, 7.765399277198775 ], [ 122.736728368489707, 7.76523648464743 ], [ 122.736882031070877, 7.765092981176132 ], [ 122.736882120402939, 7.764949382635035 ], [ 122.736978341741931, 7.764566512572022 ], [ 122.73722800492969, 7.764394348612289 ], [ 122.737765628953838, 7.764203215701635 ], [ 122.73832236620477, 7.764146119233489 ], [ 122.738341858892156, 7.763667469161578 ], [ 122.738783451339387, 7.76355286174694 ], [ 122.739052309791077, 7.763380708454503 ], [ 122.739321368584498, 7.762883064862977 ], [ 122.739897441752177, 7.762596220284305 ], [ 122.740627238970959, 7.76206056433085 ], [ 122.741664108141393, 7.761639972595799 ], [ 122.74235524045703, 7.761544659335171 ], [ 122.742719997186342, 7.761506587133293 ], [ 122.742605144304079, 7.760970415891571 ], [ 122.742989271412313, 7.76064515777679 ], [ 122.743815252225048, 7.759764917267653 ], [ 122.744756373237536, 7.75894218358237 ], [ 122.745332990381897, 7.757736299719753 ], [ 122.745621337951789, 7.757066344706073 ], [ 122.745871220798179, 7.756515074785223 ], [ 122.746178613682815, 7.756094035188029 ], [ 122.746178774354178, 7.755825984266571 ], [ 122.746486212264642, 7.755328358426042 ], [ 122.745930096167015, 7.754370701783577 ], [ 122.745527356059711, 7.753738626684658 ], [ 122.744836675361867, 7.753106378775992 ], [ 122.744337807405785, 7.752723149515583 ], [ 122.744031144104881, 7.751937958732666 ], [ 122.74408916017974, 7.751229573019795 ], [ 122.74418537152421, 7.750846700762579 ], [ 122.744300871105864, 7.750310668022219 ], [ 122.744301194575783, 7.749774566109246 ], [ 122.745088471059603, 7.7493729613288 ], [ 122.746047970264812, 7.749871343556914 ], [ 122.74629754084431, 7.749833199252375 ], [ 122.746585675055201, 7.74950788013081 ], [ 122.748159538882831, 7.749853450632657 ], [ 122.749080821046277, 7.750064605912168 ], [ 122.749781264298619, 7.750421143044633 ], [ 122.750817139192776, 7.751627980561017 ], [ 122.7516229023026, 7.752432604764724 ], [ 122.752927622819769, 7.753486421991026 ], [ 122.753829140714714, 7.754693174522769 ], [ 122.753598318407015, 7.755497194515447 ], [ 122.754135713073993, 7.755669823856134 ], [ 122.758663001583869, 7.760601653720851 ], [ 122.759488802338851, 7.760363778989371 ], [ 122.756684172000774, 7.755398450328876 ], [ 122.757105290702569, 7.753304540414901 ], [ 122.759025075526552, 7.753006466811533 ], [ 122.762624451763656, 7.752828989841655 ], [ 122.764843904982726, 7.753009720001687 ], [ 122.7700628247525, 7.753072403080659 ], [ 122.774382087203222, 7.752835381778056 ], [ 122.777741287856273, 7.753076480183158 ], [ 122.780201200008619, 7.752299928476824 ], [ 122.782180770383619, 7.752360778578679 ], [ 122.784219963809676, 7.753139645507426 ], [ 122.785538579892588, 7.755354132088436 ], [ 122.78649525530173, 7.761577242475477 ], [ 122.787695040323754, 7.761577843004067 ], [ 122.788475438976619, 7.76050123823037 ], [ 122.790215805196866, 7.75912594133269 ], [ 122.791475702171311, 7.758863295479992 ], [ 122.792975746207446, 7.758205864956298 ], [ 122.795195968588288, 7.756890613065825 ], [ 122.796936126402557, 7.755874285532308 ], [ 122.798376647591496, 7.754199645483577 ], [ 122.801316885895602, 7.752465869450174 ], [ 122.803537690958464, 7.749774412178474 ], [ 122.807377770563519, 7.747861507380937 ], [ 122.809657989766194, 7.746306871736655 ], [ 122.810619067122303, 7.743435311101464 ], [ 122.808339786333761, 7.742955627751736 ], [ 122.804861604304577, 7.740680392640068 ], [ 122.804622981080129, 7.737808294818818 ], [ 122.808224138507654, 7.733382278059857 ], [ 122.809786007681836, 7.728356993443324 ], [ 122.805467716932228, 7.727038719734961 ], [ 122.796709991840615, 7.727034642124653 ], [ 122.795271288332145, 7.725119295927779 ], [ 122.797311889543508, 7.722726944222858 ], [ 122.797553647066863, 7.718897738995498 ], [ 122.799354329670209, 7.716385595871864 ], [ 122.799835318249379, 7.713992495374717 ], [ 122.799237072035936, 7.710641558634026 ], [ 122.797678617236812, 7.70836716509511 ], [ 122.797080166956292, 7.705494890305753 ], [ 122.795641876115226, 7.702861547486002 ], [ 122.791325411433363, 7.698431813764524 ], [ 122.790248176370042, 7.693524968654475 ], [ 122.789770518726641, 7.689097079872448 ], [ 122.785332611925753, 7.688017886523571 ], [ 122.783296121636141, 7.68251221198816 ], [ 122.78053927919666, 7.678322490647236 ], [ 122.78150117985065, 7.673895324872856 ], [ 122.784500680320903, 7.672592474333771 ], [ 122.786301355046106, 7.669841044595922 ], [ 122.786183194317118, 7.666250992303963 ], [ 122.784864867797083, 7.663976672807735 ], [ 122.785946637389515, 7.65954955187673 ], [ 122.784388192944192, 7.657753777486278 ], [ 122.784510005333559, 7.6540441766689 ], [ 122.787630080038568, 7.651173727478305 ], [ 122.788710902383343, 7.648541593656422 ], [ 122.790992160490688, 7.643875706906192 ], [ 122.79207392670078, 7.639209230124517 ], [ 122.794593382294138, 7.63789410193918 ], [ 122.793514692572018, 7.636218254283288 ], [ 122.792317050117759, 7.632508013164385 ], [ 122.792678490586056, 7.629157518819675 ], [ 122.791240876847212, 7.625686492647258 ], [ 122.789682820658186, 7.623292403835583 ], [ 122.787285976235353, 7.619342230944294 ], [ 122.785368686683256, 7.615870950003938 ], [ 122.785849506248042, 7.613717186504215 ], [ 122.787169816432893, 7.611683501831818 ], [ 122.790528501322413, 7.610727803286554 ], [ 122.788850506894903, 7.608453320247651 ], [ 122.790291360507865, 7.605103348309116 ], [ 122.791491399866544, 7.603667924518143 ], [ 122.791014365174377, 7.598079252700945 ], [ 122.789576046604765, 7.596283555135183 ], [ 122.787418679207676, 7.59341049992733 ], [ 122.787299924331307, 7.591017104221558 ], [ 122.791138919531932, 7.588505960423744 ], [ 122.793418903309558, 7.585754709687309 ], [ 122.796656151292581, 7.587551239779742 ], [ 122.799055025196765, 7.586954019890284 ], [ 122.79953579628399, 7.584680568677395 ], [ 122.803734668165632, 7.58169080704385 ], [ 122.808772129925202, 7.580616045806032 ], [ 122.810331822023954, 7.579180722906708 ], [ 122.812132032271208, 7.576189825100928 ], [ 122.811414032610145, 7.572599500320966 ], [ 122.813814139865357, 7.568890849801741 ], [ 122.817292864901589, 7.566738311690213 ], [ 122.818253360311587, 7.564106033750754 ], [ 122.821612593708807, 7.560756736642678 ], [ 122.820294187772021, 7.558961186408429 ], [ 122.818735400624576, 7.558481872719889 ], [ 122.819096411283837, 7.555490340127467 ], [ 122.820176888700132, 7.552618770790962 ], [ 122.824136532529081, 7.546996016645928 ], [ 122.825696818187893, 7.543645954361267 ], [ 122.826777887227351, 7.539099021630029 ], [ 122.826659588536899, 7.53503028147183 ], [ 122.827021518093517, 7.529525720589724 ], [ 122.823904333753902, 7.528088469113266 ], [ 122.825825099599328, 7.522704198835835 ], [ 122.823666729854494, 7.522583668766558 ], [ 122.822464737861225, 7.529643565366973 ], [ 122.818267249702359, 7.530838518782308 ], [ 122.814072339764749, 7.525930394336693 ], [ 122.814433858391595, 7.521742186961425 ], [ 122.812634504118122, 7.523321032176804 ], [ 122.808555968032309, 7.526789625070934 ], [ 122.809274139381955, 7.529781622820976 ], [ 122.809873135535568, 7.531098224325925 ], [ 122.811431038842841, 7.533372577922297 ], [ 122.809870631217322, 7.536842256479115 ], [ 122.809630067700965, 7.538517494646793 ], [ 122.805192039519198, 7.541028554833765 ], [ 122.80267356551029, 7.541506095237496 ], [ 122.800514564072785, 7.542582121315246 ], [ 122.800993085409857, 7.545095351417526 ], [ 122.79835400047115, 7.547008817772896 ], [ 122.795716240363831, 7.546050255567319 ], [ 122.793318612331745, 7.544493455361182 ], [ 122.789362885133727, 7.541260554409813 ], [ 122.78684509744852, 7.540301997648462 ], [ 122.785767082746275, 7.537788460806957 ], [ 122.787207009234592, 7.535874488339029 ], [ 122.786249327949918, 7.532523340506995 ], [ 122.788289210917284, 7.529771985222762 ], [ 122.79020834382527, 7.528707869880142 ], [ 122.792728346271886, 7.524879716241012 ], [ 122.792369917426754, 7.52212719890281 ], [ 122.790332394592369, 7.520091885608825 ], [ 122.787816177932072, 7.516141655264814 ], [ 122.786019752576266, 7.511593425821714 ], [ 122.783143424845449, 7.508600332537465 ], [ 122.78038632303209, 7.507043288256341 ], [ 122.779669106391069, 7.502615239205204 ], [ 122.779431161800574, 7.498905433042601 ], [ 122.781470804553166, 7.496393436650148 ], [ 122.78027265846174, 7.49459782970529 ], [ 122.781113659668137, 7.49124756228363 ], [ 122.778596478308401, 7.489690628043586 ], [ 122.778717588079402, 7.487297341330644 ], [ 122.780157611921368, 7.48490471420135 ], [ 122.779319444704527, 7.482630614508972 ], [ 122.778243659801234, 7.476048366293774 ], [ 122.778845562693363, 7.471261969998954 ], [ 122.780764940098777, 7.469228579916456 ], [ 122.785200142490936, 7.471265107489319 ], [ 122.78951394147218, 7.476532557032358 ], [ 122.793828011811655, 7.481440963510745 ], [ 122.796823810511995, 7.485152048065983 ], [ 122.800059955684091, 7.487786214282207 ], [ 122.801618740802837, 7.487667251440203 ], [ 122.803896832307686, 7.487787938975809 ], [ 122.805455351470286, 7.488267300307658 ], [ 122.806654429752271, 7.488148160650295 ], [ 122.806775122639053, 7.486353199729631 ], [ 122.808574383923442, 7.484678638504334 ], [ 122.808815020862696, 7.482764060963235 ], [ 122.808096817093045, 7.480011393342949 ], [ 122.810135226014737, 7.479772940385065 ], [ 122.812772777001427, 7.480372406419059 ], [ 122.814811437849343, 7.479535593505397 ], [ 122.817210040104968, 7.478100581722012 ], [ 122.815893497529785, 7.472475651451726 ], [ 122.815774651901322, 7.469962579353466 ], [ 122.817933799797046, 7.467570119582124 ], [ 122.816855822527771, 7.464936982931548 ], [ 122.81625818895111, 7.46050902666406 ], [ 122.819803216000054, 7.457020190000059 ], [ 122.77178416339153, 7.455695623208403 ], [ 122.480811256655969, 7.606492755779803 ], [ 122.477265037781208, 7.613309273605521 ], [ 122.474139421046559, 7.619348456643226 ], [ 122.473286908618064, 7.620672165623898 ], [ 122.4731997254992, 7.620762524501851 ], [ 122.473155460000029, 7.620861801000065 ], [ 122.47315996100005, 7.620867254000085 ], [ 122.473170007, 7.620872233000078 ], [ 122.473183403, 7.620870574000031 ], [ 122.473196798000089, 7.62086061700006 ], [ 122.473203496000082, 7.620853978000105 ], [ 122.473206845000021, 7.620847340000096 ], [ 122.473210195000078, 7.620837383000049 ], [ 122.47321491600006, 7.620804632000044 ], [ 122.473216894000061, 7.620790914000049 ], [ 122.473235314, 7.620766020000076 ], [ 122.473242011999986, 7.620759382000091 ], [ 122.473250384000039, 7.620754403000027 ], [ 122.473277175, 7.620732829000096 ], [ 122.4733081050001, 7.620712559000041 ], [ 122.473325734, 7.620704618000055 ], [ 122.473345827000102, 7.62070461900004 ], [ 122.473357548000067, 7.620706279000065 ], [ 122.473377641000042, 7.620712918000042 ], [ 122.473387686999985, 7.620717897000084 ], [ 122.473396059, 7.620729515000066 ], [ 122.473411127000048, 7.620762708000052 ], [ 122.473446285, 7.620855648000036 ], [ 122.473640437206456, 7.621167166178132 ], [ 122.473183661137128, 7.622004248906058 ], [ 122.473590358598827, 7.622890246896434 ], [ 122.474979756280646, 7.624411649573145 ], [ 122.478578049564945, 7.623986174739282 ], [ 122.48577076639522, 7.626866687383865 ], [ 122.49475843601175, 7.633339075214154 ], [ 122.486471104824858, 7.64302199410887 ], [ 122.488978337067564, 7.652717651637801 ], [ 122.494016405673378, 7.65236460374958 ], [ 122.50084778239885, 7.657039418631459 ], [ 122.506595245230599, 7.665661771743502 ], [ 122.506583249201384, 7.67607243364468 ], [ 122.515565732956475, 7.688288276957325 ], [ 122.524203250688998, 7.687579957897002 ], [ 122.533906230021131, 7.699796255244285 ], [ 122.543245636695545, 7.71596086033095 ], [ 122.55042973601995, 7.728892115834573 ], [ 122.555104666770461, 7.732486913451961 ], [ 122.564100389817014, 7.734291146395389 ], [ 122.56985267749279, 7.740399826154796 ], [ 122.578853634294759, 7.73717788862069 ], [ 122.585689777279299, 7.739338530680086 ], [ 122.593239965195366, 7.747602607690409 ], [ 122.60187764079582, 7.747969757782628 ], [ 122.609790544609112, 7.753720955153416 ], [ 122.615907283182722, 7.755880472083573 ], [ 122.625623994773036, 7.757325100524033 ], [ 122.627053891350556, 7.768455133444408 ], [ 122.632809441536267, 7.772409067364693 ], [ 122.652962258424736, 7.77709292700255 ], [ 122.661959727508332, 7.77853616234412 ], [ 122.668081917582512, 7.774592058625472 ], [ 122.667369094618806, 7.765616645650287 ], [ 122.673490768249991, 7.762031445907037 ], [ 122.679108646837278, 7.767339097642385 ], [ 122.683426595249472, 7.76907747705946 ], [ 122.683902978221383, 7.77380459595862 ], [ 122.682340840876918, 7.776974549714886 ], [ 122.684139673671439, 7.77817254075196 ], [ 122.686179460409804, 7.778054388803633 ], [ 122.685691053387529, 7.779772415353197 ], [ 122.686161200471091, 7.780021666277327 ], [ 122.686362771510403, 7.780021815298341 ], [ 122.686535703083536, 7.779811332845415 ], [ 122.686756698576119, 7.779505153867702 ], [ 122.687073772019332, 7.779074594100964 ], [ 122.687371690158216, 7.778586580794718 ], [ 122.687563846133713, 7.778337819250486 ], [ 122.687813381002982, 7.77837629562883 ], [ 122.687832351673606, 7.778682651782578 ], [ 122.687438462130316, 7.779151448374763 ], [ 122.687198213348523, 7.779534199091485 ], [ 122.687063477965452, 7.780012759391665 ], [ 122.686765686279131, 7.780328455032982 ], [ 122.686333228684404, 7.78102697857851 ], [ 122.686150562585112, 7.781419344343171 ], [ 122.686073568285963, 7.781694995281598 ], [ 122.686150229410075, 7.781867369431217 ], [ 122.685948486517063, 7.782096976721394 ], [ 122.685737265924487, 7.78216383264948 ], [ 122.685650806592633, 7.78225950049949 ], [ 122.685583487506733, 7.782431768035946 ], [ 122.685602592136547, 7.782556233664858 ], [ 122.685775261412957, 7.78269995944467 ], [ 122.685611934050186, 7.782900875425862 ], [ 122.685775083194798, 7.782939289063851 ], [ 122.685976548755093, 7.783083036096828 ], [ 122.686072507169357, 7.783121399880319 ], [ 122.686062694799702, 7.783408588321806 ], [ 122.686322073144709, 7.783121584493618 ], [ 122.686485279352624, 7.783083412381776 ], [ 122.686753829490428, 7.783370806492044 ], [ 122.6864463581488, 7.78379179970212 ], [ 122.686715249891762, 7.783619680956291 ], [ 122.686945590358718, 7.783658143777456 ], [ 122.686868623104871, 7.783897416731532 ], [ 122.686926108807654, 7.784041057023375 ], [ 122.68738702436913, 7.783802067202219 ], [ 122.687646139876193, 7.783869270428813 ], [ 122.687847811938582, 7.783735394210162 ], [ 122.688058912713274, 7.783831281423727 ], [ 122.688279619371826, 7.78391760240326 ], [ 122.688567658447141, 7.78381250887339 ], [ 122.688874915977607, 7.783678709661404 ], [ 122.688980367668847, 7.783860677651283 ], [ 122.689277850153019, 7.783966200793496 ], [ 122.689450140773303, 7.784626877262008 ], [ 122.689584480710579, 7.784684414760963 ], [ 122.689641897020422, 7.784923786594072 ], [ 122.689891063008346, 7.785469640835152 ], [ 122.689727546289362, 7.785929034460568 ], [ 122.690082341621363, 7.7864175267156 ], [ 122.689957240933083, 7.78684822890468 ], [ 122.690005150393233, 7.786963142237461 ], [ 122.690129814988893, 7.787125977626839 ], [ 122.690360206943396, 7.787097426365873 ], [ 122.690513913965759, 7.786925221126136 ], [ 122.690676924745844, 7.787155096697266 ], [ 122.690825580060562, 7.787326924262717 ], [ 122.690903550506192, 7.787353905716431 ], [ 122.6910025095534, 7.787392868943956 ], [ 122.691095475947421, 7.787422852914704 ], [ 122.691197428081537, 7.787470793146738 ], [ 122.69122438526459, 7.787524661989296 ], [ 122.691317347325395, 7.787560629155312 ], [ 122.691443276815008, 7.787635511391803 ], [ 122.691491286129519, 7.7876146049699 ], [ 122.691548316194073, 7.787563788877195 ], [ 122.691614270735329, 7.787614694443882 ], [ 122.691590225605708, 7.787680492655197 ], [ 122.691593192412711, 7.787725369155456 ], [ 122.691485072392624, 7.787907779479528 ], [ 122.691650143732048, 7.787782251413533 ], [ 122.691698102749726, 7.787830152256888 ], [ 122.691671033931726, 7.787928856124084 ], [ 122.691713006836139, 7.787958802875717 ], [ 122.691760915584709, 7.78807551100051 ], [ 122.691808824358731, 7.788192219120309 ], [ 122.691844773992472, 7.788255069331908 ], [ 122.691937747198097, 7.788276078262887 ], [ 122.691922663808654, 7.788392740591358 ], [ 122.691901620493866, 7.788455549376771 ], [ 122.691877555680577, 7.788548272192253 ], [ 122.691862509427693, 7.788614076956353 ], [ 122.691919500244893, 7.788617110000943 ] ] ] ] } }
]
}
