{
"type": "FeatureCollection",
"name": "Bato_Lake_Camarines_Sur",
"crs": { "type": "name", "properties": { "name": "urn:ogc:def:crs:OGC:1.3:CRS84" } },
"features": [
{ "type": "Feature", "properties": { "PRV_NM": "Camarines Sur", "PRV_ID": 20.0, "NAT_ID": 177.0, "NAT_NM": "Philippines", "ADMTYP": "Waterbody", "MUN_ID": 347.0, "NAME": "Bato Lake", "MUN_VAR_NM": null, "REG_ID": 5.0, "REG_NM": "Region V", "REG_VAR_NM": "Bicol Region" }, "geometry": { "type": "MultiPolygon", "coordinates": [ [ [ [ 123.352088928222656, 13.357780456542912 ], [ 123.354972839355469, 13.356490135192928 ], [ 123.357986450195426, 13.356129646301383 ], [ 123.358566284179801, 13.355839729309082 ], [ 123.35919189453125, 13.355110168456974 ], [ 123.360183715820312, 13.353859901428223 ], [ 123.362571716308707, 13.353360176086426 ], [ 123.36421203613304, 13.352250099182243 ], [ 123.365127563476562, 13.3519802093507 ], [ 123.366607666015625, 13.350959777832031 ], [ 123.3677978515625, 13.350190162658691 ], [ 123.369438171386832, 13.349249839782772 ], [ 123.370529174804801, 13.348730087280387 ], [ 123.371040344238281, 13.348480224609375 ], [ 123.371902465820426, 13.347789764404297 ], [ 123.373291015625, 13.347579956054744 ], [ 123.37400054931652, 13.347330093383732 ], [ 123.374046325683594, 13.347299575805778 ], [ 123.374786376953125, 13.346520423889274 ], [ 123.376693725585938, 13.344129562378043 ], [ 123.378250122070312, 13.342720031738281 ], [ 123.379341125488395, 13.342289924621582 ], [ 123.379318237304801, 13.341250419616642 ], [ 123.379318237304801, 13.340769767761287 ], [ 123.379768371582031, 13.339900016784782 ], [ 123.380592346191406, 13.337860107421932 ], [ 123.3807373046875, 13.335680007934684 ], [ 123.379928588867301, 13.333930015563965 ], [ 123.380508422851562, 13.332710266113338 ], [ 123.38126373291027, 13.332269668579045 ], [ 123.381416320800895, 13.332072257995719 ], [ 123.350692749023551, 13.310411453247127 ], [ 123.350593566894531, 13.310580253601074 ], [ 123.349853515625, 13.311630249023438 ], [ 123.351043701171875, 13.312620162963924 ], [ 123.350700378418082, 13.31371021270752 ], [ 123.350830078125, 13.31464958190918 ], [ 123.350181579589844, 13.315090179443473 ], [ 123.34806060791027, 13.31558990478527 ], [ 123.34796142578125, 13.316200256347599 ], [ 123.346839904785156, 13.315210342407283 ], [ 123.346740722656364, 13.314089775085506 ], [ 123.345993041992188, 13.312820434570312 ], [ 123.3448486328125, 13.311699867248535 ], [ 123.34195709228527, 13.311539649963436 ], [ 123.339126586914062, 13.311470031738281 ], [ 123.337371826171989, 13.311599731445426 ], [ 123.336906433105469, 13.312190055847225 ], [ 123.33621978759777, 13.312729835510368 ], [ 123.33567047119152, 13.312840461731071 ], [ 123.335586547851562, 13.313030242920036 ], [ 123.335273742675895, 13.312450408935661 ], [ 123.335182189941406, 13.314279556274528 ], [ 123.336616516113395, 13.315790176391658 ], [ 123.336433410644645, 13.316909790039176 ], [ 123.338203430175781, 13.318050384521484 ], [ 123.3365478515625, 13.31807994842535 ], [ 123.335166931152344, 13.319580078125114 ], [ 123.335083007812614, 13.319600105285645 ], [ 123.333518981933707, 13.320050239563045 ], [ 123.333000183105582, 13.321889877319336 ], [ 123.331993103027457, 13.323030471801815 ], [ 123.330703735351676, 13.323479652404785 ], [ 123.329483032226562, 13.323769569397029 ], [ 123.329940795898551, 13.326029777526855 ], [ 123.329803466796875, 13.327839851379451 ], [ 123.329727172851676, 13.329179763794059 ], [ 123.329528808593864, 13.329710006713867 ], [ 123.329627990722656, 13.331660270691032 ], [ 123.331207275390625, 13.333789825439567 ], [ 123.330917358398438, 13.335189819335994 ], [ 123.33001708984375, 13.335610389709529 ], [ 123.330741882324219, 13.337980270385799 ], [ 123.331993103027457, 13.339209556579704 ], [ 123.33216857910179, 13.340629577636719 ], [ 123.332252502441406, 13.341440200805664 ], [ 123.332077026367188, 13.343859672546444 ], [ 123.333816528320312, 13.346559524536076 ], [ 123.335517883300781, 13.348620414733944 ], [ 123.33721923828125, 13.351229667663574 ], [ 123.337577819824332, 13.351750373840446 ], [ 123.339889526367188, 13.354610443115348 ], [ 123.340377807617415, 13.355640411376953 ], [ 123.340538024902344, 13.356749534607047 ], [ 123.342033386230469, 13.356789588928336 ], [ 123.343879699707145, 13.356699943542424 ], [ 123.345550537109489, 13.357540130615234 ], [ 123.346061706542969, 13.357299804687557 ], [ 123.347213745117188, 13.35729026794445 ], [ 123.347488403320426, 13.356730461120605 ], [ 123.348686218261719, 13.357259750366268 ], [ 123.349563598632926, 13.35731029510498 ], [ 123.350723266601676, 13.357769966125488 ], [ 123.352088928222656, 13.357780456542912 ] ] ] ] } }
]
}
