{
"type": "FeatureCollection",
"name": "Buhi_Lake_Camarines_Sur",
"crs": { "type": "name", "properties": { "name": "urn:ogc:def:crs:OGC:1.3:CRS84" } },
"features": [
{ "type": "Feature", "properties": { "PRV_NM": "Camarines Sur", "PRV_ID": 20.0, "NAT_ID": 177.0, "NAT_NM": "Philippines", "ADMTYP": "Waterbody", "MUN_ID": 350.0, "NAME": "Buhi Lake", "MUN_VAR_NM": null, "REG_ID": 5.0, "REG_NM": "Region V", "REG_VAR_NM": "Bicol Region" }, "geometry": { "type": "MultiPolygon", "coordinates": [ [ [ [ 123.517822265625114, 13.484089851379451 ], [ 123.519798278808594, 13.483929634094352 ], [ 123.521728515625, 13.483160018920955 ], [ 123.522361755371207, 13.481949806213493 ], [ 123.522209167480582, 13.48091030120861 ], [ 123.52121734619152, 13.480179786682186 ], [ 123.520210266113281, 13.479109764099121 ], [ 123.520370483398438, 13.477390289306697 ], [ 123.520309448242301, 13.475629806518555 ], [ 123.520866394043082, 13.475219726562614 ], [ 123.52292633056652, 13.475620269775391 ], [ 123.524169921875, 13.47577953338623 ], [ 123.52353668212902, 13.475099563598746 ], [ 123.522666931152344, 13.474699974060059 ], [ 123.521148681640625, 13.473910331726131 ], [ 123.52011871337902, 13.472900390625057 ], [ 123.518997192382812, 13.47185039520275 ], [ 123.518302917480469, 13.471420288086051 ], [ 123.518646240234375, 13.470279693603516 ], [ 123.51859283447277, 13.468950271606502 ], [ 123.518890380859375, 13.468810081481934 ], [ 123.520263671875114, 13.468899726867619 ], [ 123.520736694335938, 13.468569755554256 ], [ 123.521881103515625, 13.468649864196834 ], [ 123.522621154785156, 13.467920303344727 ], [ 123.522262573242188, 13.466730117797795 ], [ 123.522438049316406, 13.465419769287223 ], [ 123.52292633056652, 13.464839935302848 ], [ 123.524147033691406, 13.464850425720272 ], [ 123.525238037109489, 13.463749885559025 ], [ 123.525596618652457, 13.463310241699219 ], [ 123.526550292968864, 13.463930130004883 ], [ 123.527549743652457, 13.463859558105469 ], [ 123.528221130371094, 13.46350002288824 ], [ 123.528709411621094, 13.462570190429744 ], [ 123.529251098632926, 13.462309837341309 ], [ 123.53045654296875, 13.462630271911735 ], [ 123.531181335449332, 13.462070465087891 ], [ 123.532157897949219, 13.460849761963004 ], [ 123.53250885009777, 13.459030151367301 ], [ 123.532417297363281, 13.45806980133068 ], [ 123.532989501953125, 13.457249641418571 ], [ 123.532958984375, 13.455860137939567 ], [ 123.532562255859375, 13.455080032348746 ], [ 123.532913208007812, 13.45458030700695 ], [ 123.534103393554688, 13.453249931335449 ], [ 123.534652709960938, 13.452079772949276 ], [ 123.534408569336051, 13.45071983337408 ], [ 123.534172058105582, 13.449930191040153 ], [ 123.532920837402344, 13.449729919433594 ], [ 123.532096862793082, 13.450519561767692 ], [ 123.531738281250114, 13.449999809265137 ], [ 123.532920837402344, 13.448789596557674 ], [ 123.53511047363304, 13.448900222778377 ], [ 123.536613464355469, 13.448889732360954 ], [ 123.536460876464957, 13.447139739990178 ], [ 123.534843444824219, 13.444279670715446 ], [ 123.534332275390625, 13.442420005798454 ], [ 123.533897399902344, 13.441360473632812 ], [ 123.533996582031364, 13.437540054321232 ], [ 123.533828735351676, 13.436690330505485 ], [ 123.532669067382926, 13.436459541320914 ], [ 123.529151916503906, 13.43544960021967 ], [ 123.527946472167969, 13.435219764709586 ], [ 123.526443481445312, 13.43632984161377 ], [ 123.526016235351676, 13.438139915466365 ], [ 123.525650024414176, 13.43838977813715 ], [ 123.525451660156364, 13.437569618225098 ], [ 123.525619506836051, 13.435890197753963 ], [ 123.525001525879134, 13.435339927673454 ], [ 123.524948120117188, 13.435859680175838 ], [ 123.52496337890625, 13.436630249023494 ], [ 123.525077819824332, 13.438260078430176 ], [ 123.524787902832031, 13.43881988525402 ], [ 123.524169921875, 13.437549591064567 ], [ 123.522941589355582, 13.436679840087891 ], [ 123.522163391113395, 13.436699867248592 ], [ 123.521690368652344, 13.436229705810661 ], [ 123.52121734619152, 13.437310218811149 ], [ 123.520629882812614, 13.438309669494629 ], [ 123.520233154297102, 13.43727016448986 ], [ 123.519416809082031, 13.437040328979606 ], [ 123.519569396972656, 13.438449859619197 ], [ 123.519439697265625, 13.43914985656744 ], [ 123.519363403320312, 13.439399719238224 ], [ 123.518882751464844, 13.438759803772029 ], [ 123.518013000488395, 13.43820953369152 ], [ 123.516227722168196, 13.437829971313533 ], [ 123.51483154296875, 13.438059806823787 ], [ 123.514343261718864, 13.436670303344783 ], [ 123.514068603515625, 13.435790061950684 ], [ 123.512893676757812, 13.435199737548885 ], [ 123.512107849121207, 13.434809684753475 ], [ 123.512619018554801, 13.43616962432867 ], [ 123.512466430664176, 13.436980247497615 ], [ 123.509849548339844, 13.436759948730469 ], [ 123.508049011230582, 13.436409950256348 ], [ 123.506248474121094, 13.436889648437614 ], [ 123.504539489746094, 13.43626976013195 ], [ 123.503837585449446, 13.436969757080192 ], [ 123.502670288085938, 13.437419891357422 ], [ 123.501968383789176, 13.437899589538688 ], [ 123.501502990722656, 13.43976020812994 ], [ 123.502876281738509, 13.440389633178768 ], [ 123.503181457519531, 13.440839767456168 ], [ 123.500167846679688, 13.440580368042049 ], [ 123.497352600097884, 13.441140174865666 ], [ 123.495986938476562, 13.443610191345215 ], [ 123.496360778808594, 13.445590019226017 ], [ 123.497421264648551, 13.44661998748785 ], [ 123.497673034667969, 13.448240280151424 ], [ 123.498092651367188, 13.450679779052791 ], [ 123.499473571777457, 13.453249931335449 ], [ 123.49912261962902, 13.454199790954647 ], [ 123.499069213867415, 13.45436954498291 ], [ 123.497772216796989, 13.455840110778809 ], [ 123.496353149414062, 13.45773983001709 ], [ 123.495903015136719, 13.45928955078125 ], [ 123.49698638916027, 13.460209846496639 ], [ 123.497673034667969, 13.460889816284293 ], [ 123.498138427734489, 13.46222972869873 ], [ 123.497817993164062, 13.463230133056697 ], [ 123.497100830078125, 13.465160369873104 ], [ 123.498550415039176, 13.466099739074707 ], [ 123.50018310546875, 13.46757984161377 ], [ 123.498817443847656, 13.468429565429688 ], [ 123.49796295166027, 13.47006988525402 ], [ 123.496528625488281, 13.47161960601818 ], [ 123.496467590332145, 13.473899841308707 ], [ 123.497833251953125, 13.475859642028809 ], [ 123.498947143554801, 13.477910041809082 ], [ 123.499511718750114, 13.479769706726074 ], [ 123.500213623047102, 13.482040405273494 ], [ 123.501068115234375, 13.483750343322754 ], [ 123.49912261962902, 13.483499526977653 ], [ 123.498947143554801, 13.484669685363826 ], [ 123.500312805175781, 13.485489845275936 ], [ 123.5030517578125, 13.48556041717535 ], [ 123.5048828125, 13.484640121460018 ], [ 123.506248474121094, 13.484709739685115 ], [ 123.50811767578125, 13.48561954498291 ], [ 123.510192871093864, 13.487299919128532 ], [ 123.511528015136832, 13.487870216369572 ], [ 123.513473510742188, 13.487360000610352 ], [ 123.515052795410156, 13.487090110778809 ], [ 123.515869140625114, 13.487409591674918 ], [ 123.516693115234375, 13.488089561462402 ], [ 123.517402648925895, 13.486740112304688 ], [ 123.517723083496094, 13.485150337219238 ], [ 123.517822265625114, 13.484089851379451 ] ] ] ] } }
]
}
