{
"type": "FeatureCollection",
"name": "Buluan_Lake_Maguindanao",
"crs": { "type": "name", "properties": { "name": "urn:ogc:def:crs:OGC:1.3:CRS84" } },
"features": [
{ "type": "Feature", "properties": { "PRV_NM": "Maguindanao", "PRV_ID": 44.0, "NAT_ID": 177.0, "NAT_NM": "Philippines", "ADMTYP": "Waterbody", "MUN_ID": 900.0, "NAME": "Buluan Lake", "MUN_VAR_NM": null, "REG_ID": 15.0, "REG_NM": "ARMM", "REG_VAR_NM": "Autonomous Region in Muslim Mindanao" }, "geometry": { "type": "MultiPolygon", "coordinates": [ [ [ [ 124.813766479492188, 6.718329906463737 ], [ 124.817756652832031, 6.716350078582877 ], [ 124.82000732421875, 6.713779926300049 ], [ 124.821502685546989, 6.712180137634277 ], [ 124.822639465332145, 6.709939956664982 ], [ 124.82340240478527, 6.706729888916129 ], [ 124.824546813964957, 6.702889919281063 ], [ 124.824951171875, 6.697770118713379 ], [ 124.825691223144645, 6.697480201721305 ], [ 124.826049804687614, 6.696929931640568 ], [ 124.826286315917969, 6.696730136871395 ], [ 124.826789855957145, 6.696599960327205 ], [ 124.828102111816634, 6.695439815521183 ], [ 124.829238891601562, 6.695199966430721 ], [ 124.830978393554801, 6.69556999206543 ], [ 124.832336425781364, 6.696320056915283 ], [ 124.83347320556652, 6.696430206298942 ], [ 124.834663391113395, 6.696169853210506 ], [ 124.835746765136832, 6.695809841156063 ], [ 124.836883544922102, 6.695250034332389 ], [ 124.838241577148551, 6.694699764251709 ], [ 124.838996887207145, 6.694250106811523 ], [ 124.840133666992301, 6.693439960479793 ], [ 124.841537475585938, 6.691800117492733 ], [ 124.843589782714957, 6.689650058746395 ], [ 124.843673706054688, 6.688620090484619 ], [ 124.844223022460938, 6.687339782714957 ], [ 124.845489501953239, 6.686140060424862 ], [ 124.84629058837902, 6.684889793395939 ], [ 124.846626281738395, 6.683770179748649 ], [ 124.846206665039062, 6.681610107421932 ], [ 124.846450805664176, 6.679639816284237 ], [ 124.847076416015625, 6.67819976806652 ], [ 124.848228454589844, 6.677140235900879 ], [ 124.850013732910156, 6.675280094146785 ], [ 124.851623535156364, 6.67327976226818 ], [ 124.85373687744152, 6.672289848327694 ], [ 124.855636596679801, 6.672589778900146 ], [ 124.857017517089844, 6.672629833221436 ], [ 124.857711791992301, 6.672249794006404 ], [ 124.857498168945426, 6.671329975128288 ], [ 124.858306884765739, 6.66874980926525 ], [ 124.859672546386719, 6.666379928588867 ], [ 124.861709594726676, 6.664040088653508 ], [ 124.862953186035156, 6.662409782409725 ], [ 124.863182067871094, 6.660049915313721 ], [ 124.862991333007812, 6.657380104064998 ], [ 124.863021850586051, 6.656260013580265 ], [ 124.863723754882812, 6.653699874877987 ], [ 124.863792419433707, 6.653610229492301 ], [ 124.799301147461165, 6.649417877197322 ], [ 124.799377441406364, 6.64946985244751 ], [ 124.799873352051009, 6.649569988250846 ], [ 124.796562194824219, 6.65192985534668 ], [ 124.799919128418082, 6.64982986450201 ], [ 124.800827026367415, 6.650229930877799 ], [ 124.801841735839957, 6.650780200958309 ], [ 124.803886413574446, 6.650670051574821 ], [ 124.806083679199219, 6.651070117950383 ], [ 124.805847167968864, 6.652550220489616 ], [ 124.805702209472656, 6.653190135955811 ], [ 124.8072509765625, 6.654819965362549 ], [ 124.807708740234489, 6.656020164489803 ], [ 124.808090209961051, 6.657279968261719 ], [ 124.808288574218864, 6.657979965209904 ], [ 124.808982849121094, 6.659890174865779 ], [ 124.809677124023551, 6.661449909210319 ], [ 124.809890747070312, 6.662600040435791 ], [ 124.810279846191406, 6.66379976272583 ], [ 124.811637878417969, 6.665579795837516 ], [ 124.81243896484375, 6.666850090026969 ], [ 124.812698364257926, 6.668600082397575 ], [ 124.813499450683594, 6.670169830322266 ], [ 124.813682556152457, 6.671110153198356 ], [ 124.814277648925781, 6.671850204467887 ], [ 124.814537048339844, 6.672359943389893 ], [ 124.81532287597679, 6.673560142517147 ], [ 124.812957763671875, 6.676559925079403 ], [ 124.810058593750114, 6.67877006530756 ], [ 124.807518005371207, 6.6815700531007 ], [ 124.805343627929688, 6.683750152587947 ], [ 124.803520202636832, 6.686560153961182 ], [ 124.80204010009777, 6.689360141754094 ], [ 124.801651000976676, 6.693719863891715 ], [ 124.800529479980469, 6.698070049285832 ], [ 124.80088043212902, 6.700570106506291 ], [ 124.799407958984375, 6.703370094299373 ], [ 124.796600341796875, 6.717889785766658 ], [ 124.792503356933707, 6.725530147552604 ], [ 124.8076171875, 6.720510005950985 ], [ 124.813766479492188, 6.718329906463737 ] ] ] ] } }
]
}
