{
"type": "FeatureCollection",
"name": "Lanao_Lake_Lanao_del_Sur",
"crs": { "type": "name", "properties": { "name": "urn:ogc:def:crs:OGC:1.3:CRS84" } },
"features": [
{ "type": "Feature", "properties": { "PRV_NM": "Lanao del Sur", "PRV_ID": 42.0, "NAT_ID": 177.0, "NAT_NM": "Philippines", "ADMTYP": "Waterbody", "MUN_ID": 829.0, "NAME": "Lanao Lake", "MUN_VAR_NM": null, "REG_ID": 15.0, "REG_NM": "ARMM", "REG_VAR_NM": "Autonomous Region in Muslim Mindanao" }, "geometry": { "type": "MultiPolygon", "coordinates": [ [ [ [ 124.308792114257926, 8.01428031921381 ], [ 124.3094482421875, 8.01453971862793 ], [ 124.309806823730469, 8.014960289001522 ], [ 124.3101806640625, 8.015179634094352 ], [ 124.310653686523551, 8.015310287475586 ], [ 124.311576843261719, 8.015330314636344 ], [ 124.31223297119152, 8.015199661254883 ], [ 124.313018798828125, 8.015009880065918 ], [ 124.313682556152344, 8.014670372009391 ], [ 124.314102172851676, 8.014349937438965 ], [ 124.314659118652457, 8.014120101928711 ], [ 124.315376281738281, 8.0138902664184 ], [ 124.316436767578239, 8.013420104980469 ], [ 124.316963195800895, 8.013190269470215 ], [ 124.3179931640625, 8.012740135192985 ], [ 124.318550109863281, 8.012450218200684 ], [ 124.318847656250227, 8.012319564819393 ], [ 124.319320678710938, 8.012069702148438 ], [ 124.319473266601676, 8.011739730835018 ], [ 124.319839477539176, 8.011240005493221 ], [ 124.320953369140739, 8.010640144348088 ], [ 124.321952819824332, 8.010290145873967 ], [ 124.322433471679688, 8.009969711303711 ], [ 124.323196411132812, 8.009739875793457 ], [ 124.323677062988395, 8.009750366210881 ], [ 124.323951721191406, 8.009670257568303 ], [ 124.32489013671875, 8.009059906005973 ], [ 124.325759887695426, 8.008429527282715 ], [ 124.32659912109375, 8.008049964904899 ], [ 124.32749176025402, 8.00739955902111 ], [ 124.328666687011719, 8.006730079650822 ], [ 124.329391479492301, 8.006429672241325 ], [ 124.330513000488395, 8.005999565124625 ], [ 124.331253051757926, 8.005680084228516 ], [ 124.331916809082031, 8.00475025177002 ], [ 124.332206726074332, 8.004460334777889 ], [ 124.332527160644531, 8.003959655761776 ], [ 124.333602905273551, 8.00286960601818 ], [ 124.333831787109375, 8.002349853515625 ], [ 124.333976745605582, 8.001480102539119 ], [ 124.334053039550781, 8.001150131225586 ], [ 124.334083557128906, 8.000300407409611 ], [ 124.334083557128906, 8.000089645385799 ], [ 124.334068298339844, 7.999479770660514 ], [ 124.334068298339844, 7.998710155487117 ], [ 124.334053039550781, 7.998519897460938 ], [ 124.334030151367188, 7.997960090637264 ], [ 124.334098815918196, 7.997739791870117 ], [ 124.334266662597656, 7.997409820556754 ], [ 124.334266662597656, 7.99692010879528 ], [ 124.334007263183594, 7.997019767761344 ], [ 124.333686828613281, 7.997000217437858 ], [ 124.33341217041027, 7.996709823608512 ], [ 124.333259582519531, 7.996099948883057 ], [ 124.33294677734375, 7.995550155639762 ], [ 124.332656860351562, 7.995339870452995 ], [ 124.332176208496094, 7.99524021148693 ], [ 124.33188629150402, 7.995289802551326 ], [ 124.330963134765625, 7.994870185852051 ], [ 124.33054351806652, 7.994740009307861 ], [ 124.330139160156364, 7.99449014663702 ], [ 124.329963684082145, 7.994259834289551 ], [ 124.329696655273438, 7.994289875030631 ], [ 124.329277038574219, 7.994040012359619 ], [ 124.329238891601562, 7.993690013885498 ], [ 124.329360961914176, 7.993450164794865 ], [ 124.33011627197277, 7.992640018463192 ], [ 124.330551147461051, 7.99239015579235 ], [ 124.331443786621207, 7.99189996719366 ], [ 124.331871032714957, 7.991660118103027 ], [ 124.332260131836051, 7.991459846496639 ], [ 124.332901000976562, 7.990600109100342 ], [ 124.332832336425895, 7.989920139312801 ], [ 124.332862854003906, 7.989220142364616 ], [ 124.332748413085938, 7.988749980926627 ], [ 124.332221984863395, 7.987780094146672 ], [ 124.331687927246207, 7.987199783325252 ], [ 124.331390380859375, 7.986979961395321 ], [ 124.33099365234375, 7.986629962921199 ], [ 124.330879211425895, 7.986169815063477 ], [ 124.330673217773665, 7.985330104827881 ], [ 124.33054351806652, 7.98478984832775 ], [ 124.330238342285156, 7.98409986495966 ], [ 124.329826354980469, 7.983359813690186 ], [ 124.329673767089844, 7.983150005340633 ], [ 124.329528808593977, 7.982749938964901 ], [ 124.329559326171989, 7.982429981231689 ], [ 124.329696655273438, 7.982089996337947 ], [ 124.329963684082145, 7.981780052185115 ], [ 124.329803466796875, 7.981060028076115 ], [ 124.329521179199446, 7.980830192565861 ], [ 124.329376220703239, 7.980599880218563 ], [ 124.329498291015625, 7.98036003112793 ], [ 124.329673767089844, 7.980340003967342 ], [ 124.330459594726562, 7.980179786682243 ], [ 124.330673217773665, 7.980080127716178 ], [ 124.330879211425895, 7.979790210723877 ], [ 124.330741882324332, 7.979330062866325 ], [ 124.330482482910384, 7.979139804840088 ], [ 124.33026123046875, 7.978869915008545 ], [ 124.33062744140625, 7.97802019119257 ], [ 124.331199645996094, 7.977389812469482 ], [ 124.331367492675781, 7.977149963378849 ], [ 124.33206939697277, 7.976270198822021 ], [ 124.33270263671875, 7.97550010681158 ], [ 124.332862854003906, 7.9753098487854 ], [ 124.33377838134777, 7.974699974060059 ], [ 124.334587097167969, 7.974150180816594 ], [ 124.335113525390739, 7.973690032959041 ], [ 124.336067199707145, 7.972869873046932 ], [ 124.336883544921875, 7.972310066223088 ], [ 124.33746337890625, 7.971849918365535 ], [ 124.337882995605469, 7.971519947051945 ], [ 124.338768005371094, 7.970960140228328 ], [ 124.339157104492188, 7.970640182495117 ], [ 124.339729309082031, 7.970089912414608 ], [ 124.340461730957145, 7.969279766082877 ], [ 124.340606689453239, 7.96878004074108 ], [ 124.341049194335938, 7.968019962310791 ], [ 124.341659545898438, 7.967209815979118 ], [ 124.342010498046875, 7.967010021209774 ], [ 124.34256744384777, 7.966740131378231 ], [ 124.343612670898438, 7.966110229492188 ], [ 124.344673156738281, 7.965630054473877 ], [ 124.345840454101562, 7.965260028839168 ], [ 124.346733093261832, 7.964759826660156 ], [ 124.347618103027344, 7.964469909668026 ], [ 124.348953247070312, 7.964479923248405 ], [ 124.350028991699219, 7.964859962463436 ], [ 124.350997924804688, 7.965579986572379 ], [ 124.350982666015625, 7.96642017364502 ], [ 124.350791931152344, 7.966989994049015 ], [ 124.350776672363281, 7.967309951782227 ], [ 124.35111236572277, 7.967219829559269 ], [ 124.351593017578125, 7.967000007629395 ], [ 124.352226257324446, 7.967199802398738 ], [ 124.352569580078125, 7.967710018157959 ], [ 124.35279846191429, 7.968130111694279 ], [ 124.353073120117188, 7.968200206756649 ], [ 124.354011535644645, 7.967929840087891 ], [ 124.354812622070312, 7.967589855194149 ], [ 124.355743408203125, 7.967140197753963 ], [ 124.356468200683707, 7.966919898986816 ], [ 124.357009887695426, 7.966469764709586 ], [ 124.357406616211051, 7.9654798507691 ], [ 124.358139038086165, 7.964680194854793 ], [ 124.358917236328239, 7.963870048522892 ], [ 124.359230041503906, 7.96356010437006 ], [ 124.359611511230469, 7.962669849395809 ], [ 124.359649658203125, 7.962230205536002 ], [ 124.359848022461165, 7.960889816284123 ], [ 124.360076904296989, 7.960000038146916 ], [ 124.360473632812614, 7.959199905395565 ], [ 124.360939025878906, 7.958399772644043 ], [ 124.361343383789062, 7.957950115203914 ], [ 124.361862182617188, 7.957029819488525 ], [ 124.362510681152344, 7.956369876861572 ], [ 124.36248779296875, 7.95608997344965 ], [ 124.36234283447277, 7.955319881439266 ], [ 124.36213684082054, 7.954360008239803 ], [ 124.362388610839957, 7.95353984832775 ], [ 124.362701416015625, 7.953030109405574 ], [ 124.362709045410384, 7.952509880065975 ], [ 124.362747192382926, 7.951690196990967 ], [ 124.362731933593864, 7.950990200042725 ], [ 124.362510681152344, 7.950129985809383 ], [ 124.362472534179688, 7.949639797210693 ], [ 124.362503051757812, 7.949359893798942 ], [ 124.362693786621094, 7.949240207672176 ], [ 124.3626708984375, 7.94871997833252 ], [ 124.362533569336051, 7.947999954223576 ], [ 124.361732482910156, 7.947380065917912 ], [ 124.360397338867188, 7.94645977020275 ], [ 124.359321594238395, 7.945700168609733 ], [ 124.358436584472656, 7.944960117340031 ], [ 124.357902526855469, 7.944330215454215 ], [ 124.357307434082031, 7.943120002746525 ], [ 124.356971740722656, 7.942220211029166 ], [ 124.356842041015739, 7.941380023956356 ], [ 124.356910705566406, 7.940320014953613 ], [ 124.356903076171875, 7.939789772033635 ], [ 124.356918334960938, 7.938449859619197 ], [ 124.356986999511946, 7.937729835510254 ], [ 124.356857299804801, 7.9369797706604 ], [ 124.356819152832145, 7.93671989440918 ], [ 124.356773376464844, 7.935929775238037 ], [ 124.356407165527344, 7.934929847717342 ], [ 124.355949401855469, 7.934279918670768 ], [ 124.355453491210938, 7.933790206909123 ], [ 124.354362487793082, 7.933169841766414 ], [ 124.353507995605469, 7.932849884033203 ], [ 124.352706909179688, 7.932769775390625 ], [ 124.350990295410156, 7.932809829711914 ], [ 124.349853515625, 7.932869911193961 ], [ 124.348388671875, 7.932929992675781 ], [ 124.346641540527344, 7.932919979095402 ], [ 124.345878601074219, 7.932879924774113 ], [ 124.344711303710938, 7.932849884033203 ], [ 124.344039916992301, 7.932809829711914 ], [ 124.34364318847679, 7.932720184326229 ], [ 124.342819213867188, 7.932020187377987 ], [ 124.341903686523438, 7.931519985198975 ], [ 124.341133117675781, 7.931169986724854 ], [ 124.340370178222656, 7.931039810180607 ], [ 124.339363098144531, 7.931119918823185 ], [ 124.338386535644531, 7.931409835815487 ], [ 124.337142944335938, 7.931190013885555 ], [ 124.336631774902457, 7.931029796600455 ], [ 124.335746765136719, 7.930550098419189 ], [ 124.334968566894531, 7.93005990982067 ], [ 124.334182739257812, 7.929649829864559 ], [ 124.333541870117301, 7.929329872131348 ], [ 124.333099365234375, 7.929150104522705 ], [ 124.332687377929688, 7.928919792175407 ], [ 124.332328796386719, 7.927700042724609 ], [ 124.332229614257926, 7.926889896392936 ], [ 124.331947326660156, 7.925340175628776 ], [ 124.331680297851676, 7.924359798431396 ], [ 124.331382751464844, 7.923709869384766 ], [ 124.330963134765625, 7.923409938812313 ], [ 124.330467224121094, 7.923130035400391 ], [ 124.330078125, 7.922929763794002 ], [ 124.329483032226562, 7.922160148620605 ], [ 124.328872680664062, 7.921350002288932 ], [ 124.328536987304688, 7.920810222625846 ], [ 124.328216552734489, 7.920390129089355 ], [ 124.3277587890625, 7.920000076293945 ], [ 124.327178955078125, 7.919610023498535 ], [ 124.326721191406364, 7.919099807739315 ], [ 124.325859069824219, 7.91802978515625 ], [ 124.324737548828125, 7.916959762573356 ], [ 124.32401275634777, 7.916049957275391 ], [ 124.323677062988395, 7.91565990447998 ], [ 124.323432922363395, 7.915450096130428 ], [ 124.323028564453125, 7.915259838104248 ], [ 124.322853088379134, 7.915729999542179 ], [ 124.32244873046875, 7.916069984436092 ], [ 124.321876525878906, 7.915969848632812 ], [ 124.321243286132812, 7.91568994522089 ], [ 124.320182800293196, 7.915110111236515 ], [ 124.319297790527457, 7.914740085601863 ], [ 124.318443298339844, 7.914410114288273 ], [ 124.317497253417969, 7.914209842681885 ], [ 124.316543579101562, 7.913790225982609 ], [ 124.315879821777344, 7.91326999664301 ], [ 124.315299987792969, 7.912230014801025 ], [ 124.31494140625, 7.911610126495361 ], [ 124.314338684082145, 7.910240173339844 ], [ 124.314559936523438, 7.908860206604118 ], [ 124.314987182617188, 7.907440185546932 ], [ 124.315063476562614, 7.907110214233398 ], [ 124.315086364746207, 7.906469821929932 ], [ 124.314796447753906, 7.905499935150146 ], [ 124.314521789550895, 7.904819965362663 ], [ 124.314376831054688, 7.903240203857365 ], [ 124.31439208984375, 7.902410030364933 ], [ 124.314849853515739, 7.90175008773798 ], [ 124.315498352050781, 7.900650024414006 ], [ 124.316322326660156, 7.899779796600285 ], [ 124.316879272460938, 7.899409770965633 ], [ 124.317337036132926, 7.898789882659969 ], [ 124.317619323730469, 7.897920131683293 ], [ 124.317756652832145, 7.897049903869572 ], [ 124.317901611328239, 7.89631986618042 ], [ 124.318161010742188, 7.895189762115535 ], [ 124.318260192871094, 7.89427995681757 ], [ 124.3182373046875, 7.893909931182918 ], [ 124.31809234619152, 7.893089771270866 ], [ 124.317840576171875, 7.892529964447021 ], [ 124.317291259765625, 7.891870021820068 ], [ 124.316688537597656, 7.89133977890009 ], [ 124.315971374511719, 7.890699863433895 ], [ 124.314811706542969, 7.889850139617977 ], [ 124.314071655273665, 7.889210224151725 ], [ 124.313560485839957, 7.888780117034855 ], [ 124.313346862793082, 7.888569831848088 ], [ 124.312911987304688, 7.887859821319694 ], [ 124.312606811523551, 7.886859893798828 ], [ 124.312522888183594, 7.886509895324707 ], [ 124.312927246093977, 7.885890007019043 ], [ 124.313491821289062, 7.885129928588981 ], [ 124.31365966796875, 7.88470983505249 ], [ 124.313850402832031, 7.883440017700252 ], [ 124.313919067382926, 7.882060050964355 ], [ 124.313796997070312, 7.88148021697998 ], [ 124.313636779785156, 7.880589962005672 ], [ 124.313552856445426, 7.879700183868465 ], [ 124.313369750976676, 7.878769874572754 ], [ 124.312927246093977, 7.876389980316162 ], [ 124.312843322753906, 7.875410079956168 ], [ 124.312736511230696, 7.874619960785026 ], [ 124.312637329101562, 7.872729778289852 ], [ 124.312591552734489, 7.872189998626766 ], [ 124.31268310546875, 7.870880126953239 ], [ 124.312919616699219, 7.869729995727596 ], [ 124.31314849853527, 7.869070053100643 ], [ 124.313690185547102, 7.867959976196289 ], [ 124.314170837402344, 7.867370128631535 ], [ 124.31510162353527, 7.867139816284237 ], [ 124.315750122070312, 7.867619991302547 ], [ 124.316398620605582, 7.868239879608211 ], [ 124.31683349609375, 7.868649959564152 ], [ 124.317207336425781, 7.868720054626522 ], [ 124.317970275878906, 7.868559837341422 ], [ 124.318817138671875, 7.867310047149715 ], [ 124.3189697265625, 7.866600036621151 ], [ 124.319160461425781, 7.865520000457877 ], [ 124.319641113281364, 7.86388015747076 ], [ 124.320037841796989, 7.862559795379639 ], [ 124.320091247558594, 7.861770153045711 ], [ 124.32041168212902, 7.860889911651668 ], [ 124.320709228515625, 7.860139846801758 ], [ 124.321151733398551, 7.859270095825309 ], [ 124.321403503417969, 7.85876989364624 ], [ 124.321533203125114, 7.858190059661865 ], [ 124.321899414062727, 7.857719898223877 ], [ 124.322708129882926, 7.855929851532039 ], [ 124.32273101806652, 7.854549884796143 ], [ 124.322853088379134, 7.853600025177116 ], [ 124.323036193847884, 7.851650238037166 ], [ 124.32309722900402, 7.850619792938346 ], [ 124.323066711425895, 7.849380016327018 ], [ 124.323066711425895, 7.848299980163574 ], [ 124.32309722900402, 7.847599983215332 ], [ 124.323066711425895, 7.847129821777344 ], [ 124.323410034179688, 7.84644985198986 ], [ 124.324111938476562, 7.846210002899227 ], [ 124.324897766113281, 7.845960140228215 ], [ 124.3253173828125, 7.845489978790283 ], [ 124.325729370117301, 7.844429969787598 ], [ 124.32614898681652, 7.843589782714957 ], [ 124.326400756835938, 7.842599868774414 ], [ 124.326622009277344, 7.841380119323844 ], [ 124.326812744140625, 7.839250087738037 ], [ 124.326461791992188, 7.837989807128963 ], [ 124.326026916503906, 7.837230205535946 ], [ 124.325607299804688, 7.836719989776725 ], [ 124.325210571289176, 7.835830211639461 ], [ 124.324028015136832, 7.835959911346436 ], [ 124.322593688964844, 7.836209774017448 ], [ 124.322746276855469, 7.836599826812858 ], [ 124.322578430175781, 7.837049961090088 ], [ 124.322273254394759, 7.837470054626579 ], [ 124.321640014648438, 7.83774995803833 ], [ 124.320823669433707, 7.837969779968205 ], [ 124.319526672363281, 7.839169979095516 ], [ 124.318977355957031, 7.839749813079891 ], [ 124.318489074707145, 7.840459823608455 ], [ 124.317832946777344, 7.841050148010254 ], [ 124.317008972168082, 7.841519832611198 ], [ 124.316276550292969, 7.841989994049129 ], [ 124.315856933593864, 7.842229843139762 ], [ 124.314979553222656, 7.84237003326416 ], [ 124.314086914062614, 7.842259883880672 ], [ 124.313278198242188, 7.841750144958496 ], [ 124.312911987304688, 7.841380119323844 ], [ 124.312713623046875, 7.840980052948055 ], [ 124.311958312988281, 7.84070014953619 ], [ 124.311729431152344, 7.840750217437801 ], [ 124.311019897461165, 7.841269969940186 ], [ 124.310668945312614, 7.841619968414307 ], [ 124.309936523437614, 7.84197998046875 ], [ 124.309341430664176, 7.841959953308219 ], [ 124.308868408203125, 7.841539859771729 ], [ 124.308441162109375, 7.840769767761287 ], [ 124.308326721191406, 7.839839935302791 ], [ 124.308242797851562, 7.839300155639705 ], [ 124.308227539062614, 7.838709831237907 ], [ 124.307907104492188, 7.838409900665283 ], [ 124.307289123535156, 7.838180065154972 ], [ 124.306533813476562, 7.837999820709285 ], [ 124.306007385253906, 7.838099956512451 ], [ 124.305130004882926, 7.838709831237907 ], [ 124.304893493652344, 7.839059829712028 ], [ 124.30399322509777, 7.839340209960994 ], [ 124.30283355712902, 7.839159965515137 ], [ 124.302078247070426, 7.838580131530762 ], [ 124.301437377929688, 7.837460041046199 ], [ 124.301147460937614, 7.836510181427002 ], [ 124.300788879394645, 7.835110187530518 ], [ 124.300682067871094, 7.834569931030387 ], [ 124.300460815429688, 7.833610057830754 ], [ 124.300399780273551, 7.832069873809928 ], [ 124.300323486328125, 7.831409931182975 ], [ 124.300430297851562, 7.830669879913273 ], [ 124.300781250000114, 7.83000993728632 ], [ 124.300857543945312, 7.828979969024715 ], [ 124.300819396972656, 7.828209877014103 ], [ 124.300819396972656, 7.827199935913086 ], [ 124.300979614257926, 7.825990200042838 ], [ 124.300979614257926, 7.824699878692627 ], [ 124.301559448242301, 7.823480129242 ], [ 124.302062988281477, 7.822850227356014 ], [ 124.302673339843864, 7.822100162506104 ], [ 124.303192138671875, 7.821280002594051 ], [ 124.303413391113395, 7.820600032806396 ], [ 124.303497314453125, 7.819519996643123 ], [ 124.303413391113395, 7.81837987899786 ], [ 124.303222656250114, 7.817420005798454 ], [ 124.303070068359489, 7.816740036010742 ], [ 124.303123474121094, 7.815830230713004 ], [ 124.303306579589844, 7.815179824829158 ], [ 124.303947448730469, 7.814119815826473 ], [ 124.304206848144645, 7.813280105590877 ], [ 124.304733276367415, 7.811379909515381 ], [ 124.305107116699446, 7.810170173644963 ], [ 124.305343627929801, 7.809299945831242 ], [ 124.305442810058594, 7.808340072631836 ], [ 124.305717468261832, 7.807499885559025 ], [ 124.30584716796875, 7.8060498237611 ], [ 124.306098937988395, 7.805349826812687 ], [ 124.306457519531364, 7.80456018447876 ], [ 124.306869506836051, 7.80391979217535 ], [ 124.307960510253906, 7.803120136261043 ], [ 124.309097290039062, 7.802649974823112 ], [ 124.309486389160156, 7.802320003509521 ], [ 124.309936523437614, 7.801499843597469 ], [ 124.31036376953125, 7.800799846649227 ], [ 124.311019897461165, 7.800280094146842 ], [ 124.3115234375, 7.80033016204834 ], [ 124.312088012695312, 7.800230026245231 ], [ 124.312759399414176, 7.799719810485954 ], [ 124.313240051269531, 7.799250125885067 ], [ 124.313568115234489, 7.798940181732235 ], [ 124.314910888671989, 7.798789978027457 ], [ 124.315948486328125, 7.798630237579403 ], [ 124.316680908203125, 7.798160076141414 ], [ 124.317146301269645, 7.797709941864014 ], [ 124.317550659179801, 7.797009944915828 ], [ 124.317947387695426, 7.796420097351074 ], [ 124.318107604980582, 7.795839786529598 ], [ 124.317802429199219, 7.794879913330192 ], [ 124.317337036132926, 7.794509887695369 ], [ 124.316886901855469, 7.794320106506348 ], [ 124.316612243652457, 7.794050216674805 ], [ 124.316436767578239, 7.793700218200684 ], [ 124.316703796386719, 7.793069839477596 ], [ 124.317298889160156, 7.793149948120174 ], [ 124.318130493164176, 7.793570041656494 ], [ 124.318946838378906, 7.793990135192985 ], [ 124.319633483886832, 7.794429779052791 ], [ 124.320480346679688, 7.795030117034969 ], [ 124.32096099853527, 7.795360088348332 ], [ 124.321922302246207, 7.795959949493465 ], [ 124.322921752929801, 7.796850204467717 ], [ 124.323356628417969, 7.797289848327694 ], [ 124.323722839355469, 7.797729969024772 ], [ 124.3240966796875, 7.798289775848389 ], [ 124.324333190917969, 7.798520088195914 ], [ 124.324569702148665, 7.79902982711792 ], [ 124.324897766113281, 7.800340175628662 ], [ 124.324981689453239, 7.800829887390137 ], [ 124.325492858886719, 7.80246019363409 ], [ 124.325736999511832, 7.803510189056453 ], [ 124.325942993164176, 7.804329872131461 ], [ 124.326362609863281, 7.805099964141903 ], [ 124.327186584472656, 7.805260181427002 ], [ 124.328056335449332, 7.804689884185734 ], [ 124.328468322753906, 7.803730010986328 ], [ 124.328598022461051, 7.802849769592285 ], [ 124.328506469726562, 7.801660060882568 ], [ 124.328247070312614, 7.800509929656926 ], [ 124.327690124511832, 7.799230098724308 ], [ 124.327377319335938, 7.798530101776123 ], [ 124.326927185058707, 7.79790019989025 ], [ 124.325790405273438, 7.796999931335449 ], [ 124.324562072754134, 7.795810222625732 ], [ 124.323310852050781, 7.794650077819938 ], [ 124.322723388671989, 7.794040203094482 ], [ 124.322540283203239, 7.793739795684928 ], [ 124.319198608398438, 7.791200160980281 ], [ 124.317916870117301, 7.790249824523983 ], [ 124.31549072265625, 7.788730144500732 ], [ 124.313011169433594, 7.788050174713248 ], [ 124.310981750488281, 7.787640094757137 ], [ 124.309539794921989, 7.787759780883903 ], [ 124.30621337890625, 7.787149906158447 ], [ 124.303016662597884, 7.786749839782829 ], [ 124.302436828613509, 7.787280082702637 ], [ 124.301582336425781, 7.787730216980037 ], [ 124.300651550292969, 7.788010120391959 ], [ 124.29949951171875, 7.788020133972168 ], [ 124.296707153320312, 7.788159847259465 ], [ 124.295272827148438, 7.788010120391959 ], [ 124.293983459472656, 7.787789821624813 ], [ 124.290992736816634, 7.787889957427922 ], [ 124.289146423339957, 7.787819862365723 ], [ 124.286430358886832, 7.787630081176758 ], [ 124.283851623535156, 7.787620067596549 ], [ 124.281753540039062, 7.787859916687012 ], [ 124.279899597167969, 7.787930011749381 ], [ 124.277366638183594, 7.787889957427922 ], [ 124.275077819824219, 7.787799835205192 ], [ 124.272880554199446, 7.788129806518555 ], [ 124.271202087402457, 7.788300037384033 ], [ 124.269126892089957, 7.788169860839844 ], [ 124.26727294921875, 7.787799835205192 ], [ 124.265258789062614, 7.78754997253418 ], [ 124.263946533203239, 7.786900043487606 ], [ 124.262466430664062, 7.786429882049617 ], [ 124.26126861572277, 7.785669803619385 ], [ 124.260147094726676, 7.784580230713004 ], [ 124.259033203125, 7.783539772033805 ], [ 124.256706237793082, 7.782330036163387 ], [ 124.2545166015625, 7.781489849090576 ], [ 124.252471923828352, 7.781070232391357 ], [ 124.25164794921875, 7.780819892883301 ], [ 124.250396728515739, 7.780749797821102 ], [ 124.249397277832031, 7.780720233917236 ], [ 124.248657226562727, 7.780910015106201 ], [ 124.24664306640625, 7.781559944152775 ], [ 124.245948791503906, 7.781489849090576 ], [ 124.245033264160384, 7.781280040741024 ], [ 124.244033813476562, 7.781229972839412 ], [ 124.243400573730469, 7.78125 ], [ 124.241531372070312, 7.781919956207275 ], [ 124.240409851074219, 7.781829833984318 ], [ 124.23935699462902, 7.781899929046688 ], [ 124.238800048828239, 7.781849861145076 ], [ 124.23773193359375, 7.781599998474235 ], [ 124.236007690429688, 7.781640052795524 ], [ 124.234992980957145, 7.781499862670955 ], [ 124.23423004150402, 7.781149864196834 ], [ 124.233291625976562, 7.780990123748779 ], [ 124.232582092285156, 7.780779838562012 ], [ 124.232170104980469, 7.780640125274658 ], [ 124.231483459472884, 7.780340194702205 ], [ 124.230339050293196, 7.779799938202018 ], [ 124.228897094726562, 7.779409885406437 ], [ 124.227569580078125, 7.779059886932316 ], [ 124.226890563964844, 7.778779983520621 ], [ 124.226142883301009, 7.778339862823543 ], [ 124.22525787353527, 7.777989864349422 ], [ 124.223983764648438, 7.777890205383414 ], [ 124.223503112793082, 7.777800083160457 ], [ 124.222526550293196, 7.777870178222656 ], [ 124.221542358398438, 7.77810001373291 ], [ 124.22039794921875, 7.7785902023316 ], [ 124.219680786132926, 7.77889013290411 ], [ 124.218933105468864, 7.779099941253605 ], [ 124.218002319336051, 7.779349803924617 ], [ 124.217308044433594, 7.779880046844596 ], [ 124.216583251953125, 7.780670166015739 ], [ 124.2161865234375, 7.781320095062313 ], [ 124.215766906738281, 7.781919956207275 ], [ 124.215263366699219, 7.783110141754207 ], [ 124.214996337890625, 7.783689975738582 ], [ 124.214523315429801, 7.78387022018444 ], [ 124.214286804199219, 7.783820152282772 ], [ 124.214057922363281, 7.783770084381104 ], [ 124.212852478027457, 7.783229827880973 ], [ 124.212280273437614, 7.783110141754207 ], [ 124.211250305175781, 7.782979965209961 ], [ 124.210746765136832, 7.78292989730835 ], [ 124.210197448730582, 7.782889842987061 ], [ 124.209266662597656, 7.782869815826473 ], [ 124.20831298828125, 7.782969951629582 ], [ 124.207351684570312, 7.78305006027216 ], [ 124.206161499023551, 7.783219814300594 ], [ 124.204917907714844, 7.783569812774715 ], [ 124.204139709472656, 7.783740043640194 ], [ 124.203392028808594, 7.783969879150504 ], [ 124.202972412109375, 7.784070014953613 ], [ 124.20255279541027, 7.784140110015983 ], [ 124.20175933837902, 7.784239768982047 ], [ 124.20102691650402, 7.784220218658561 ], [ 124.200073242187614, 7.784570217132625 ], [ 124.199661254882926, 7.784689903259277 ], [ 124.198966979980469, 7.785019874572811 ], [ 124.198333740234489, 7.785160064697209 ], [ 124.197067260742188, 7.78544998168951 ], [ 124.196243286132926, 7.78557014465332 ], [ 124.195480346679801, 7.785600185394287 ], [ 124.194427490234375, 7.785560131072998 ], [ 124.194099426269759, 7.785329818725643 ], [ 124.192741394042969, 7.785679817199764 ], [ 124.192169189453125, 7.7859401702882 ], [ 124.191513061523438, 7.786340236663762 ], [ 124.190826416015625, 7.786739826202449 ], [ 124.19061279296875, 7.786970138549805 ], [ 124.190536499023551, 7.78715991973877 ], [ 124.189888000488281, 7.787829875946102 ], [ 124.189888000488281, 7.788440227508659 ], [ 124.190139770507926, 7.789760112762508 ], [ 124.190422058105469, 7.790269851684513 ], [ 124.190826416015625, 7.79082012176525 ], [ 124.191459655761832, 7.791150093078613 ], [ 124.191963195800781, 7.791210174560604 ], [ 124.192337036132812, 7.791210174560604 ], [ 124.193168640136832, 7.791279792785758 ], [ 124.194236755371094, 7.791389942169246 ], [ 124.195098876953239, 7.791609764099178 ], [ 124.1959228515625, 7.792049884796199 ], [ 124.196113586425781, 7.792170047760067 ], [ 124.19663238525402, 7.792580127716178 ], [ 124.196876525878906, 7.792789936065731 ], [ 124.197402954101676, 7.793439865112305 ], [ 124.19760894775402, 7.794159889221248 ], [ 124.197601318359489, 7.79502010345459 ], [ 124.197570800781364, 7.795529842376766 ], [ 124.197563171386832, 7.796010017395133 ], [ 124.197486877441406, 7.796780109405518 ], [ 124.197479248046875, 7.797359943389893 ], [ 124.19760894775402, 7.797659873962402 ], [ 124.197563171386832, 7.798289775848389 ], [ 124.197273254394531, 7.798689842224178 ], [ 124.196907043457031, 7.798880100250244 ], [ 124.196563720703125, 7.798970222473145 ], [ 124.196006774902571, 7.799039840698299 ], [ 124.195556640625, 7.799069881439209 ], [ 124.195198059082031, 7.799069881439209 ], [ 124.194442749023438, 7.799009799957389 ], [ 124.194007873535156, 7.798989772796631 ], [ 124.193511962890625, 7.798900127410946 ], [ 124.193176269531364, 7.798799991607666 ], [ 124.192810058593864, 7.798779964447078 ], [ 124.192283630371094, 7.798789978027457 ], [ 124.191467285156364, 7.798860073089656 ], [ 124.190826416015625, 7.799069881439209 ], [ 124.1904296875, 7.799310207366887 ], [ 124.189956665039176, 7.799640178680477 ], [ 124.189651489257812, 7.799709796905574 ], [ 124.187599182128906, 7.799779891967773 ], [ 124.186759948730469, 7.800469875335637 ], [ 124.185760498046989, 7.800819873809758 ], [ 124.18524169921875, 7.801089763641301 ], [ 124.184593200683707, 7.80151987075817 ], [ 124.184127807617188, 7.801929950714111 ], [ 124.183746337890625, 7.802100181579647 ], [ 124.183128356933594, 7.802390098571891 ], [ 124.181503295898438, 7.802969932556096 ], [ 124.181037902832031, 7.803170204162711 ], [ 124.180183410644759, 7.803629875183219 ], [ 124.179786682128906, 7.803850173950195 ], [ 124.179122924804688, 7.804240226745605 ], [ 124.178459167480696, 7.804419994354191 ], [ 124.17624664306652, 7.805170059204102 ], [ 124.175338745117188, 7.805240154266471 ], [ 124.173957824707145, 7.805130004882812 ], [ 124.172996520996207, 7.804969787597656 ], [ 124.172248840332031, 7.804989814758414 ], [ 124.17138671875, 7.805200099945182 ], [ 124.170272827148551, 7.805339813232536 ], [ 124.169456481933594, 7.805409908294735 ], [ 124.168037414550895, 7.805860042572135 ], [ 124.167289733886719, 7.806429862976131 ], [ 124.166633605957259, 7.806839942932072 ], [ 124.166519165039176, 7.806869983673209 ], [ 124.164138793945312, 7.806970119476318 ], [ 124.163566589355469, 7.807260036468563 ], [ 124.163101196289062, 7.807499885559025 ], [ 124.162277221679801, 7.807889938354606 ], [ 124.161499023437614, 7.808370113372746 ], [ 124.160797119140739, 7.808690071105957 ], [ 124.160003662109489, 7.808839797973633 ], [ 124.159057617187614, 7.80892992019659 ], [ 124.157539367675895, 7.809060096740779 ], [ 124.156929016113395, 7.809050083160457 ], [ 124.156341552734602, 7.808969974517879 ], [ 124.155357360839844, 7.808750152587947 ], [ 124.153938293457031, 7.808249950408936 ], [ 124.153236389160156, 7.808060169219914 ], [ 124.15283203125, 7.808000087738094 ], [ 124.151542663574219, 7.808080196380672 ], [ 124.150520324707031, 7.80814981460577 ], [ 124.14933013916027, 7.808159828186149 ], [ 124.148376464843864, 7.808129787445068 ], [ 124.147178649902571, 7.807869911193904 ], [ 124.146423339843977, 7.807539939880485 ], [ 124.145576477050781, 7.807079792022705 ], [ 124.144538879394645, 7.806839942932072 ], [ 124.143981933593864, 7.806709766388053 ], [ 124.143188476562614, 7.806610107421989 ], [ 124.14243316650402, 7.806519985199088 ], [ 124.141563415527344, 7.806590080261287 ], [ 124.140449523925781, 7.806690216064567 ], [ 124.138862609863395, 7.807149887084904 ], [ 124.136833190917969, 7.807779788970947 ], [ 124.135749816894645, 7.808350086212215 ], [ 124.13498687744152, 7.809050083160457 ], [ 124.134376525878906, 7.810400009155217 ], [ 124.133979797363281, 7.811610221862907 ], [ 124.133453369140852, 7.812290191650391 ], [ 124.132736206054801, 7.812749862670898 ], [ 124.132026672363281, 7.812990188598633 ], [ 124.13120269775402, 7.813189983367977 ], [ 124.130256652832145, 7.813449859619141 ], [ 124.128929138183707, 7.813620090484619 ], [ 124.126617431640739, 7.814249992370662 ], [ 124.12542724609375, 7.814869880676326 ], [ 124.124870300293196, 7.815460205078125 ], [ 124.124191284179688, 7.81643009185791 ], [ 124.123222351074332, 7.817530155181885 ], [ 124.122367858886719, 7.818280220031795 ], [ 124.12149810791027, 7.818550109863338 ], [ 124.120506286621207, 7.818600177765006 ], [ 124.119369506836051, 7.818900108337459 ], [ 124.118606567382926, 7.819049835205135 ], [ 124.117202758789062, 7.819890022277946 ], [ 124.116752624511719, 7.820099830627498 ], [ 124.11541748046875, 7.82040977478033 ], [ 124.114509582519531, 7.82043981552124 ], [ 124.112930297851562, 7.82043981552124 ], [ 124.11189270019554, 7.820360183715934 ], [ 124.111030578613281, 7.82040977478033 ], [ 124.110336303710938, 7.82053995132452 ], [ 124.109451293945426, 7.82076978683483 ], [ 124.108337402343864, 7.821109771728572 ], [ 124.107727050781364, 7.821499824523926 ], [ 124.107009887695426, 7.821919918060246 ], [ 124.10605621337902, 7.822710037231445 ], [ 124.10552978515625, 7.823309898376522 ], [ 124.105117797851562, 7.824240207672062 ], [ 124.10516357421875, 7.824920177459774 ], [ 124.105476379394645, 7.82588005065918 ], [ 124.105339050292969, 7.826829910278377 ], [ 124.105361938476562, 7.827549934387207 ], [ 124.105712890625, 7.828149795532283 ], [ 124.106101989746094, 7.828470230102539 ], [ 124.106781005859489, 7.829070091247672 ], [ 124.107353210449332, 7.829450130462703 ], [ 124.107887268066634, 7.829880237579346 ], [ 124.108467102051009, 7.83027982711792 ], [ 124.109519958496094, 7.830639839172363 ], [ 124.110229492187614, 7.830930233001709 ], [ 124.11081695556652, 7.83128023147583 ], [ 124.111801147460938, 7.831550121307373 ], [ 124.112373352050781, 7.831620216369743 ], [ 124.113006591796875, 7.831669807434139 ], [ 124.113861083984489, 7.831980228424072 ], [ 124.114219665527457, 7.832640171051025 ], [ 124.114372253418196, 7.833439826965275 ], [ 124.114402770996207, 7.835090160369987 ], [ 124.113838195800895, 7.836380004882756 ], [ 124.113479614257926, 7.836800098419246 ], [ 124.112876892089957, 7.838069915771484 ], [ 124.112869262695426, 7.839260101318416 ], [ 124.112556457519531, 7.840159893036002 ], [ 124.11224365234375, 7.840950012206974 ], [ 124.11181640625, 7.842060089111328 ], [ 124.11163330078125, 7.843110084533691 ], [ 124.111457824707031, 7.845910072326774 ], [ 124.111572265625114, 7.84722995758068 ], [ 124.110961914062614, 7.848229885101375 ], [ 124.110061645507926, 7.848959922790527 ], [ 124.10929107666027, 7.849540233612117 ], [ 124.1080322265625, 7.850440025329704 ], [ 124.106819152832145, 7.851230144500846 ], [ 124.105918884277344, 7.852139949798641 ], [ 124.105407714843977, 7.852540016174373 ], [ 124.104820251464844, 7.853380203247184 ], [ 124.104843139648665, 7.854040145874137 ], [ 124.105110168457031, 7.854720115661621 ], [ 124.105598449707259, 7.855410099029484 ], [ 124.106163024902344, 7.856140136718807 ], [ 124.106529235839844, 7.856569766998234 ], [ 124.107246398925781, 7.857140064239502 ], [ 124.107818603515625, 7.857349872589225 ], [ 124.108589172363281, 7.857450008392334 ], [ 124.109756469726562, 7.857480049133244 ], [ 124.110908508300781, 7.857590198516903 ], [ 124.111427307128906, 7.857470035553092 ], [ 124.112007141113281, 7.857269763946476 ], [ 124.11289215087902, 7.857039928436393 ], [ 124.113487243652457, 7.856949806213493 ], [ 124.113983154296875, 7.856999874115104 ], [ 124.114532470703125, 7.857399940490723 ], [ 124.114799499511832, 7.857830047607365 ], [ 124.115257263183594, 7.858250141143856 ], [ 124.115966796875114, 7.858510017395076 ], [ 124.116416931152344, 7.858890056610107 ], [ 124.116622924804688, 7.859029769897404 ], [ 124.117233276367415, 7.859389781951904 ], [ 124.11765289306652, 7.860209941863957 ], [ 124.117958068847656, 7.860589981079158 ], [ 124.118316650390625, 7.860990047454948 ], [ 124.118782043457145, 7.861249923706112 ], [ 124.119216918945426, 7.8617200851441 ], [ 124.119697570800781, 7.862150192260742 ], [ 124.120086669921875, 7.862309932708854 ], [ 124.120811462402344, 7.862689971923885 ], [ 124.121772766113281, 7.863349914550838 ], [ 124.122482299804688, 7.863890171051139 ], [ 124.123016357421989, 7.864260196685791 ], [ 124.123786926269645, 7.86424016952526 ], [ 124.12420654296875, 7.864170074462891 ], [ 124.124603271484375, 7.864329814910946 ], [ 124.12481689453125, 7.864520072937012 ], [ 124.125938415527344, 7.864399909973145 ], [ 124.12689208984375, 7.86381006240839 ], [ 124.127326965332031, 7.863589763641471 ], [ 124.127830505371094, 7.863049983978328 ], [ 124.12870025634777, 7.862480163574332 ], [ 124.129753112792969, 7.86175012588501 ], [ 124.130081176757926, 7.861460208892879 ], [ 124.130966186523665, 7.861100196838436 ], [ 124.131576538086051, 7.861149787902832 ], [ 124.132339477539176, 7.861639976501522 ], [ 124.132698059082145, 7.861919879913444 ], [ 124.133186340332031, 7.862080097198543 ], [ 124.133598327636719, 7.862120151519832 ], [ 124.133979797363281, 7.862349987030143 ], [ 124.134681701660156, 7.863080024719238 ], [ 124.135192871093864, 7.863570213317928 ], [ 124.135803222656364, 7.864170074462891 ], [ 124.136138916015739, 7.864570140838623 ], [ 124.13641357421875, 7.864990234374943 ], [ 124.136787414550781, 7.865630149841365 ], [ 124.137359619140625, 7.866300106048641 ], [ 124.13775634765625, 7.866930007934684 ], [ 124.137969970703125, 7.867519855499268 ], [ 124.138519287109375, 7.868740081787109 ], [ 124.13883209228527, 7.869209766387996 ], [ 124.139007568359489, 7.869490146636963 ], [ 124.139976501464957, 7.870180130004826 ], [ 124.140342712402457, 7.870369911193848 ], [ 124.141899108886832, 7.8715500831604 ], [ 124.142463684082145, 7.871950149536133 ], [ 124.143157958984375, 7.872169971466064 ], [ 124.14447021484375, 7.872439861297607 ], [ 124.14527893066429, 7.872660160064754 ], [ 124.145599365234375, 7.873079776763973 ], [ 124.145767211914062, 7.873529911041203 ], [ 124.145477294921989, 7.874470233917293 ], [ 124.145652770996321, 7.875259876251221 ], [ 124.146018981933594, 7.875609874725342 ], [ 124.146682739257926, 7.876520156860352 ], [ 124.147857666015625, 7.878089904785213 ], [ 124.148460388183594, 7.878749847412166 ], [ 124.14969635009777, 7.880149841308651 ], [ 124.150283813476676, 7.880529880523682 ], [ 124.151237487793082, 7.880919933319092 ], [ 124.152191162109489, 7.880790233612117 ], [ 124.152717590332259, 7.880549907684383 ], [ 124.153633117675781, 7.880360126495418 ], [ 124.154296875000114, 7.880209922790641 ], [ 124.154731750488281, 7.880060195922965 ], [ 124.155952453613509, 7.880070209503117 ], [ 124.156768798828239, 7.880229949951229 ], [ 124.157577514648438, 7.88067007064825 ], [ 124.15811920166027, 7.881110191345272 ], [ 124.158439636230696, 7.881490230560303 ], [ 124.159103393554688, 7.881790161132812 ], [ 124.159973144531364, 7.882410049438477 ], [ 124.160507202148438, 7.882810115814209 ], [ 124.160766601562614, 7.8832302093507 ], [ 124.161186218261719, 7.88355016708374 ], [ 124.161460876464844, 7.883790016174373 ], [ 124.161567687988281, 7.884399890899658 ], [ 124.161773681640625, 7.885029792785701 ], [ 124.162406921386719, 7.885940074920711 ], [ 124.162750244140625, 7.886240005493164 ], [ 124.163742065429688, 7.887060165405217 ], [ 124.164520263671875, 7.887869834899902 ], [ 124.164947509765739, 7.888460159301871 ], [ 124.165412902832031, 7.889019966125488 ], [ 124.166061401367415, 7.889530181884766 ], [ 124.166946411132812, 7.889609813690242 ], [ 124.167556762695312, 7.889389991760368 ], [ 124.168037414550895, 7.888979911804256 ], [ 124.169380187988395, 7.887710094451961 ], [ 124.171112060546875, 7.88641977310175 ], [ 124.171981811523665, 7.885630130767879 ], [ 124.173049926757812, 7.884570121765137 ], [ 124.174346923828125, 7.88431978225708 ], [ 124.17563629150402, 7.884479999542236 ], [ 124.176399230957145, 7.884469985962028 ], [ 124.17730712890625, 7.883890151977653 ], [ 124.178146362304801, 7.882860183715877 ], [ 124.178611755371094, 7.882549762725773 ], [ 124.179626464843864, 7.88274002075201 ], [ 124.180206298828239, 7.883180141449031 ], [ 124.180519104003906, 7.883220195770321 ], [ 124.181159973144645, 7.883019924163932 ], [ 124.181686401367188, 7.883200168609619 ], [ 124.182327270507926, 7.88352012634283 ], [ 124.182586669921875, 7.883890151977653 ], [ 124.182601928710938, 7.884359836578369 ], [ 124.182479858398551, 7.88480997085577 ], [ 124.182342529296989, 7.885119915008602 ], [ 124.182563781738281, 7.885499954223633 ], [ 124.183296203613395, 7.885910034179744 ], [ 124.183738708496094, 7.886159896850586 ], [ 124.184928894042969, 7.886750221252385 ], [ 124.185173034668082, 7.887100219726676 ], [ 124.18560791015625, 7.887370109558049 ], [ 124.186408996582031, 7.887380123138428 ], [ 124.187103271484489, 7.887670040130729 ], [ 124.18731689453125, 7.888329982757625 ], [ 124.187500000000114, 7.888609886169377 ], [ 124.187736511230469, 7.888800144195613 ], [ 124.188911437988281, 7.889160156250114 ], [ 124.189231872558594, 7.889180183410645 ], [ 124.18971252441429, 7.889190196991024 ], [ 124.190261840820312, 7.889359951019287 ], [ 124.190536499023551, 7.889900207519588 ], [ 124.190719604492301, 7.890079975128231 ], [ 124.190986633300781, 7.890049934387321 ], [ 124.191566467285156, 7.889969825744743 ], [ 124.191802978515625, 7.890220165252799 ], [ 124.192016601562614, 7.890399932861442 ], [ 124.192367553710938, 7.89021015167242 ], [ 124.192886352539062, 7.889939785003662 ], [ 124.193191528320426, 7.890029907226562 ], [ 124.19358062744152, 7.890439987182674 ], [ 124.19376373291027, 7.890739917755184 ], [ 124.194053649902344, 7.891419887542838 ], [ 124.194152832031364, 7.892240047454891 ], [ 124.193862915039062, 7.893089771270866 ], [ 124.193733215332145, 7.893420219421444 ], [ 124.193740844726676, 7.893750190734863 ], [ 124.193832397460938, 7.893889904022217 ], [ 124.194267272949219, 7.89415979385376 ], [ 124.194618225097656, 7.894340038299617 ], [ 124.195571899414062, 7.894820213317928 ], [ 124.196037292480582, 7.895040035247803 ], [ 124.196739196777344, 7.895589828491268 ], [ 124.197059631347656, 7.896029949188346 ], [ 124.197479248046875, 7.896940231323356 ], [ 124.19754791259777, 7.89717006683361 ], [ 124.197883605957031, 7.898029804229736 ], [ 124.198486328125227, 7.898890018463248 ], [ 124.198921203613395, 7.899179935455379 ], [ 124.199272155761832, 7.899219989776668 ], [ 124.200111389160156, 7.899129867553711 ], [ 124.200798034668082, 7.8992600440979 ], [ 124.201377868652457, 7.899809837341365 ], [ 124.202072143554688, 7.900829792022819 ], [ 124.20245361328125, 7.901100158691406 ], [ 124.2030029296875, 7.901279926300049 ], [ 124.2041015625, 7.90126991271967 ], [ 124.205230712890739, 7.901390075683707 ], [ 124.205642700195312, 7.901500225067196 ], [ 124.206657409667969, 7.901800155639648 ], [ 124.207870483398551, 7.902219772338924 ], [ 124.208686828613281, 7.902810096740723 ], [ 124.208976745605696, 7.903019905090446 ], [ 124.209938049316634, 7.903230190277213 ], [ 124.210563659668082, 7.903069972991887 ], [ 124.210952758789176, 7.902919769287109 ], [ 124.211593627929688, 7.902840137481803 ], [ 124.212043762207145, 7.903039932250977 ], [ 124.212280273437614, 7.903520107269287 ], [ 124.212211608886719, 7.903689861297551 ], [ 124.211883544921989, 7.903999805450383 ], [ 124.211456298828352, 7.904039859771842 ], [ 124.210830688476562, 7.903890132904166 ], [ 124.210403442382812, 7.903779983520508 ], [ 124.209587097168082, 7.903659820556641 ], [ 124.20902252197277, 7.903649806976262 ], [ 124.208671569824332, 7.903800010681209 ], [ 124.208381652832031, 7.904230117797908 ], [ 124.208076477050895, 7.904399871826172 ], [ 124.207733154296875, 7.904530048370361 ], [ 124.207481384277457, 7.904749870300293 ], [ 124.2073974609375, 7.905189990997314 ], [ 124.207252502441406, 7.905620098114014 ], [ 124.206977844238281, 7.905839920044059 ], [ 124.206367492675895, 7.906020164489746 ], [ 124.205833435058594, 7.906030178070125 ], [ 124.205352783203352, 7.905950069427547 ], [ 124.204986572265739, 7.905910015106258 ], [ 124.204086303711051, 7.906539916992301 ], [ 124.203643798828352, 7.90674018859869 ], [ 124.20263671875, 7.9067702293396 ], [ 124.201988220214957, 7.906760215759277 ], [ 124.20111083984375, 7.906660079956168 ], [ 124.200126647949219, 7.906519889831543 ], [ 124.199508666992301, 7.906630039215031 ], [ 124.19907379150402, 7.90674018859869 ], [ 124.198478698730469, 7.90657997131359 ], [ 124.198066711425781, 7.90654993057251 ], [ 124.197723388672102, 7.906789779663143 ], [ 124.197486877441406, 7.907269954681453 ], [ 124.197380065918082, 7.907949924469108 ], [ 124.1968994140625, 7.908360004425049 ], [ 124.196487426757812, 7.908800125122127 ], [ 124.196327209472656, 7.909220218658447 ], [ 124.196243286132926, 7.910029888153076 ], [ 124.196052551269645, 7.910830020904598 ], [ 124.195808410644531, 7.911330223083496 ], [ 124.195419311523438, 7.911980152130241 ], [ 124.195343017578125, 7.912280082702694 ], [ 124.195457458496207, 7.912660121917725 ], [ 124.195716857910156, 7.913360118865967 ], [ 124.196037292480582, 7.913770198822078 ], [ 124.19644927978527, 7.914169788360596 ], [ 124.19718170166027, 7.914340019226074 ], [ 124.197273254394531, 7.914760112762394 ], [ 124.197113037109375, 7.915190219879264 ], [ 124.196983337402457, 7.915520191192627 ], [ 124.196823120117301, 7.91576004028326 ], [ 124.196907043457031, 7.916200160980338 ], [ 124.197303771972656, 7.916379928588924 ], [ 124.197731018066634, 7.91651010513317 ], [ 124.198211669921875, 7.916880130767822 ], [ 124.198486328125227, 7.917009830474967 ], [ 124.198936462402457, 7.917049884796256 ], [ 124.199203491210938, 7.917089939117545 ], [ 124.199806213378906, 7.917260169983024 ], [ 124.200370788574219, 7.917339801788387 ], [ 124.200828552246207, 7.917550086975154 ], [ 124.201332092285156, 7.91811990737915 ], [ 124.20172119140625, 7.918369770050163 ], [ 124.201972961425895, 7.918910026550293 ], [ 124.202178955078239, 7.919250011444035 ], [ 124.20255279541027, 7.919690132141113 ], [ 124.202888488769645, 7.919939994812125 ], [ 124.203491210937614, 7.920159816742 ], [ 124.203903198242301, 7.920340061187858 ], [ 124.20426177978527, 7.920780181884709 ], [ 124.205017089843864, 7.921090126037541 ], [ 124.205368041992301, 7.921179771423454 ], [ 124.205352783203352, 7.921740055084342 ], [ 124.205070495605469, 7.922060012817326 ], [ 124.204887390136719, 7.922490119934196 ], [ 124.205017089843864, 7.923120021820068 ], [ 124.205322265625, 7.923840045929012 ], [ 124.205459594726562, 7.924399852752629 ], [ 124.2056884765625, 7.924940109252987 ], [ 124.20597076416027, 7.925189971923828 ], [ 124.207061767578125, 7.924930095672607 ], [ 124.207710266113395, 7.924960136413517 ], [ 124.208511352539062, 7.925250053405819 ], [ 124.208877563476562, 7.925610065460319 ], [ 124.2091064453125, 7.926270008087272 ], [ 124.209457397460938, 7.927249908447379 ], [ 124.209747314453352, 7.927619934082031 ], [ 124.210403442382812, 7.928100109100399 ], [ 124.210769653320426, 7.928460121154842 ], [ 124.211380004882812, 7.92924976348877 ], [ 124.211746215820312, 7.929800033569279 ], [ 124.212188720703125, 7.930190086364689 ], [ 124.212997436523551, 7.930359840393123 ], [ 124.213592529296989, 7.930280208587646 ], [ 124.214118957519531, 7.929979801178092 ], [ 124.214462280273438, 7.929689884185848 ], [ 124.215087890625227, 7.929580211639404 ], [ 124.2158203125, 7.929800033569279 ], [ 124.216857910156364, 7.930339813232422 ], [ 124.217407226562614, 7.930669784545955 ], [ 124.218086242675781, 7.931200027465934 ], [ 124.2186279296875, 7.931610107421875 ], [ 124.219039916992188, 7.931950092315617 ], [ 124.219413757324219, 7.93257999420166 ], [ 124.219497680664176, 7.933090209960881 ], [ 124.219413757324219, 7.933499813079777 ], [ 124.219039916992188, 7.933929920196647 ], [ 124.218528747558707, 7.934269905090389 ], [ 124.217453002929688, 7.935029983520451 ], [ 124.216857910156364, 7.935540199279899 ], [ 124.216377258300781, 7.935929775238037 ], [ 124.216026306152344, 7.936200141906852 ], [ 124.215499877929801, 7.937479972839412 ], [ 124.215599060058594, 7.937980175018311 ], [ 124.215713500976676, 7.938230037689323 ], [ 124.216163635253906, 7.938950061798096 ], [ 124.216697692871094, 7.93956995010376 ], [ 124.217498779296875, 7.940169811248893 ], [ 124.218048095703125, 7.940599918365535 ], [ 124.218772888183707, 7.940839767456168 ], [ 124.219596862792969, 7.940939903259277 ], [ 124.220169067382812, 7.941130161285514 ], [ 124.220352172851562, 7.941289901733398 ], [ 124.2205810546875, 7.94163990020752 ], [ 124.221008300781364, 7.942210197448787 ], [ 124.221687316894531, 7.942440032959041 ], [ 124.222679138183594, 7.942689895629883 ], [ 124.223503112793082, 7.94287014007574 ], [ 124.224258422851676, 7.942940235137939 ], [ 124.225349426269531, 7.943280220031852 ], [ 124.22625732421875, 7.943749904632568 ], [ 124.22705078125, 7.944139957427979 ], [ 124.228012084960938, 7.944580078125 ], [ 124.228446960449332, 7.945799827575797 ], [ 124.228012084960938, 7.946839809417781 ], [ 124.227073669433594, 7.947599887848014 ], [ 124.226799011230469, 7.94782018661499 ], [ 124.226303100585938, 7.948840141296387 ], [ 124.226066589355469, 7.94995021820074 ], [ 124.22615051269554, 7.950580120086784 ], [ 124.226066589355469, 7.951290130615178 ], [ 124.225852966308594, 7.951759815216064 ], [ 124.225769042968977, 7.952260017395133 ], [ 124.22589111328125, 7.953060150146484 ], [ 124.226081848144531, 7.953770160675106 ], [ 124.226280212402344, 7.954329967498722 ], [ 124.226486206054688, 7.954939842224235 ], [ 124.226593017578239, 7.955480098724365 ], [ 124.226638793945312, 7.955860137939567 ], [ 124.226852416992188, 7.956540107727051 ], [ 124.227203369140625, 7.956799983978271 ], [ 124.227897644043082, 7.956999778747615 ], [ 124.228767395019531, 7.957280158996582 ], [ 124.229606628418082, 7.957580089569035 ], [ 124.230216979980582, 7.958040237426815 ], [ 124.230628967285156, 7.958419799804801 ], [ 124.231056213378906, 7.958859920501652 ], [ 124.231613159179688, 7.959609985351562 ], [ 124.231986999511719, 7.959990024566764 ], [ 124.23264312744152, 7.960259914398307 ], [ 124.233367919921875, 7.960279941558838 ], [ 124.234016418457145, 7.960090160369873 ], [ 124.234916687011946, 7.959750175476131 ], [ 124.235679626465071, 7.959760189056453 ], [ 124.236267089843864, 7.959879875183105 ], [ 124.236640930176009, 7.960249900817928 ], [ 124.236808776855469, 7.960889816284123 ], [ 124.237068176269645, 7.961400032043571 ], [ 124.237342834472656, 7.962080001831055 ], [ 124.23773193359375, 7.962840080261287 ], [ 124.238006591796989, 7.96310997009283 ], [ 124.238616943359489, 7.96353006362915 ], [ 124.239509582519645, 7.963970184326229 ], [ 124.23990631103527, 7.964129924774284 ], [ 124.240669250488395, 7.964459896087646 ], [ 124.2413330078125, 7.964900016784725 ], [ 124.241851806640739, 7.965270042419547 ], [ 124.242530822753906, 7.965620040893668 ], [ 124.243682861328125, 7.966169834136963 ], [ 124.243911743164176, 7.966410160064811 ], [ 124.244636535644531, 7.966919898986816 ], [ 124.245193481445312, 7.967460155487174 ], [ 124.245567321777344, 7.967760086059627 ], [ 124.245956420898438, 7.968080043792838 ], [ 124.246612548828239, 7.968689918518123 ], [ 124.247108459472656, 7.969389915466365 ], [ 124.247276306152344, 7.969930171966496 ], [ 124.247421264648438, 7.970469951629639 ], [ 124.247337341308707, 7.971350193023682 ], [ 124.247177124023551, 7.97216987609869 ], [ 124.247398376464844, 7.972809791564941 ], [ 124.247596740722656, 7.973090171814079 ], [ 124.248077392578352, 7.97349023818964 ], [ 124.24832916259777, 7.973509788513184 ], [ 124.248718261718864, 7.973549842834416 ], [ 124.249359130859375, 7.973969936370906 ], [ 124.249771118164062, 7.974100112915153 ], [ 124.250297546386719, 7.974219799041748 ], [ 124.250640869140625, 7.974380016326904 ], [ 124.251182556152457, 7.97491979598999 ], [ 124.251502990722656, 7.975009918212891 ], [ 124.252166748046875, 7.974949836731071 ], [ 124.25335693359375, 7.975029945373649 ], [ 124.25390625, 7.975009918212891 ], [ 124.254341125488281, 7.974999904632568 ], [ 124.255332946777571, 7.97498989105236 ], [ 124.25665283203125, 7.974810123443547 ], [ 124.25750732421875, 7.97508001327509 ], [ 124.258613586425895, 7.975570201873779 ], [ 124.259178161621207, 7.976220130920353 ], [ 124.259780883789176, 7.977129936218319 ], [ 124.260223388671875, 7.977880001068172 ], [ 124.260711669921989, 7.978799819946346 ], [ 124.260833740234375, 7.979290008545036 ], [ 124.260948181152344, 7.979690074920768 ], [ 124.260818481445312, 7.980470180511588 ], [ 124.260887145996207, 7.980820178985709 ], [ 124.261306762695426, 7.982540130615348 ], [ 124.261222839355469, 7.98330020904541 ], [ 124.261039733886719, 7.984079837799129 ], [ 124.260963439941406, 7.984739780426082 ], [ 124.26053619384777, 7.985199928283691 ], [ 124.260482788086165, 7.985909938812256 ], [ 124.260139465332145, 7.986830234527645 ], [ 124.260147094726676, 7.98786020278942 ], [ 124.260002136230469, 7.989399909973201 ], [ 124.260261535644531, 7.992489814758414 ], [ 124.260581970214844, 7.992740154266471 ], [ 124.260963439941406, 7.992939949035645 ], [ 124.261863708496207, 7.993060111999512 ], [ 124.262229919433707, 7.993120193481502 ], [ 124.263023376464957, 7.993410110473576 ], [ 124.263870239257812, 7.993629932403678 ], [ 124.264717102050895, 7.99357986450201 ], [ 124.265632629394759, 7.99350976943964 ], [ 124.266258239746207, 7.993500232696533 ], [ 124.266860961914062, 7.993649959564209 ], [ 124.266998291015739, 7.993979930877799 ], [ 124.267311096191406, 7.994909763336295 ], [ 124.267791748046989, 7.995699882507438 ], [ 124.268203735351562, 7.996089935302848 ], [ 124.268623352050781, 7.996220111846867 ], [ 124.26904296875, 7.996590137481746 ], [ 124.269401550292969, 7.997149944305363 ], [ 124.269561767578125, 7.997640132904053 ], [ 124.269950866699219, 7.998290061950627 ], [ 124.270339965820312, 7.998680114746207 ], [ 124.270713806152344, 7.999070167541618 ], [ 124.270660400390739, 7.999829769134635 ], [ 124.270698547363281, 8.000180244445801 ], [ 124.27069091796875, 8.00092983245861 ], [ 124.27060699462902, 8.001549720764274 ], [ 124.270683288574219, 8.002389907836914 ], [ 124.270896911621094, 8.003170013427678 ], [ 124.271202087402457, 8.004150390625057 ], [ 124.271446228027344, 8.004949569702092 ], [ 124.271896362304688, 8.005620002746639 ], [ 124.272216796875, 8.006010055542049 ], [ 124.272361755371207, 8.00636005401617 ], [ 124.272651672363281, 8.007229804992676 ], [ 124.272666931152344, 8.007479667663631 ], [ 124.272789001464844, 8.00790977478033 ], [ 124.2728271484375, 8.008190155029297 ], [ 124.272796630859375, 8.008660316467285 ], [ 124.272880554199446, 8.009440422058049 ], [ 124.272987365722656, 8.009830474853629 ], [ 124.27329254150402, 8.010370254516545 ], [ 124.2738037109375, 8.011090278625488 ], [ 124.274757385253906, 8.0117702484132 ], [ 124.275413513183707, 8.012200355529842 ], [ 124.276077270507812, 8.012470245361442 ], [ 124.276481628417969, 8.01249980926508 ], [ 124.276481628417969, 8.012169837951717 ], [ 124.276283264160156, 8.011540412902946 ], [ 124.276260375976562, 8.011090278625488 ], [ 124.276947021484489, 8.010279655456543 ], [ 124.277313232421989, 8.009869575500431 ], [ 124.277931213378906, 8.009380340576229 ], [ 124.278579711914062, 8.009030342102108 ], [ 124.279182434082145, 8.008660316467285 ], [ 124.279541015625, 8.008370399475154 ], [ 124.279800415039176, 8.008009910583439 ], [ 124.280723571777457, 8.007019996643123 ], [ 124.280929565429801, 8.006690025329533 ], [ 124.281341552734489, 8.00629997253418 ], [ 124.282188415527344, 8.005780220031795 ], [ 124.28260803222679, 8.005539894104118 ], [ 124.282913208007812, 8.005270004272575 ], [ 124.283363342285384, 8.004790306091309 ], [ 124.283828735351562, 8.0042600631715 ], [ 124.284393310546989, 8.003629684448242 ], [ 124.285003662109375, 8.003120422363281 ], [ 124.2857666015625, 8.002630233764762 ], [ 124.286270141601676, 8.002169609069938 ], [ 124.286621093750114, 8.001899719238395 ], [ 124.287162780761719, 8.001230239868107 ], [ 124.287422180175895, 8.000920295715275 ], [ 124.287628173828239, 8.000559806823787 ], [ 124.287696838378906, 8.000349998474235 ], [ 124.287849426269531, 7.999499797821045 ], [ 124.288131713867415, 7.998740196228027 ], [ 124.288650512695312, 7.998489856719971 ], [ 124.288932800293082, 7.998620033264217 ], [ 124.28916168212902, 7.999020099639949 ], [ 124.289413452148438, 7.999320030212459 ], [ 124.289741516113281, 7.99931001663208 ], [ 124.290153503417969, 7.999179840087834 ], [ 124.290863037109489, 7.999050140380859 ], [ 124.291183471679915, 7.999199867248592 ], [ 124.291198730468864, 7.999579906463623 ], [ 124.2908935546875, 8.000479698181209 ], [ 124.29071044921875, 8.001310348510685 ], [ 124.290847778320426, 8.002129554748649 ], [ 124.291191101074446, 8.002610206604061 ], [ 124.291473388671875, 8.00286960601818 ], [ 124.291976928711051, 8.003069877624569 ], [ 124.292327880859602, 8.003060340881461 ], [ 124.293098449707259, 8.002900123596305 ], [ 124.293441772460938, 8.002699851989746 ], [ 124.293807983398438, 8.001979827880973 ], [ 124.294197082519531, 8.001640319824276 ], [ 124.294036865234375, 8.000969886779899 ], [ 124.293502807617301, 8.000229835510368 ], [ 124.293113708496207, 7.999670028686523 ], [ 124.29266357421875, 7.998909950256291 ], [ 124.292739868164176, 7.99878978729248 ], [ 124.293548583984489, 7.998670101165828 ], [ 124.294273376464957, 7.998630046844596 ], [ 124.294647216796989, 7.998670101165828 ], [ 124.295227050781364, 7.998610019683838 ], [ 124.296157836914176, 7.998610019683838 ], [ 124.29669189453125, 7.998290061950627 ], [ 124.297233581542969, 7.997900009155273 ], [ 124.297782897949219, 7.997839927673397 ], [ 124.298370361328125, 7.998010158538932 ], [ 124.29876708984375, 7.998239994049186 ], [ 124.299003601074446, 7.99898004531866 ], [ 124.299026489257926, 7.999479770660514 ], [ 124.299278259277344, 8.000720024108887 ], [ 124.299461364746207, 8.001609802246094 ], [ 124.29978179931652, 8.001970291137809 ], [ 124.300331115722656, 8.002519607544059 ], [ 124.300727844238509, 8.002909660339469 ], [ 124.301239013671875, 8.003370285034293 ], [ 124.301666259765625, 8.004039764404354 ], [ 124.302177429199219, 8.004759788513297 ], [ 124.302589416503906, 8.005430221557674 ], [ 124.303001403808594, 8.006219863891602 ], [ 124.303230285644645, 8.006540298462028 ], [ 124.303558349609375, 8.006609916687012 ], [ 124.304237365722656, 8.006589889526424 ], [ 124.3048095703125, 8.006950378417969 ], [ 124.304878234863281, 8.007470130920524 ], [ 124.305030822753906, 8.008449554443416 ], [ 124.305328369140739, 8.008959770202694 ], [ 124.305633544921875, 8.009050369262638 ], [ 124.305831909179688, 8.009229660034237 ], [ 124.305618286132812, 8.009960174560604 ], [ 124.305290222167969, 8.010439872741699 ], [ 124.305007934570312, 8.010970115661678 ], [ 124.30478668212902, 8.011540412902946 ], [ 124.304718017578125, 8.011819839477596 ], [ 124.304992675781364, 8.01249980926508 ], [ 124.305633544921875, 8.013090133667106 ], [ 124.306396484375, 8.013520240783748 ], [ 124.306877136230582, 8.013759613037166 ], [ 124.307662963867301, 8.014169692993278 ], [ 124.308258056640625, 8.014289855957145 ], [ 124.308792114257926, 8.01428031921381 ] ], [ [ 124.205108642578125, 7.889090061187687 ], [ 124.204887390136719, 7.889490127563477 ], [ 124.204727172851562, 7.88962984085083 ], [ 124.204193115234375, 7.889530181884766 ], [ 124.203536987304688, 7.88923978805542 ], [ 124.203132629394645, 7.889130115508976 ], [ 124.202743530273551, 7.889090061187687 ], [ 124.202239990234375, 7.889100074768066 ], [ 124.201988220214957, 7.889130115508976 ], [ 124.201690673828125, 7.889070034027156 ], [ 124.20084381103527, 7.888810157775993 ], [ 124.200401306152571, 7.888460159301871 ], [ 124.200271606445426, 7.888090133666992 ], [ 124.200492858886719, 7.887569904327393 ], [ 124.20068359375, 7.887539863586483 ], [ 124.201690673828125, 7.88766002655035 ], [ 124.2020263671875, 7.887390136718807 ], [ 124.202606201171875, 7.887149810791072 ], [ 124.203033447265625, 7.887279987335319 ], [ 124.20365142822277, 7.887310028076229 ], [ 124.203903198242301, 7.887159824371452 ], [ 124.204338073730469, 7.887129783630371 ], [ 124.204933166503906, 7.887259960174561 ], [ 124.205230712890739, 7.887229919433651 ], [ 124.205711364746094, 7.887609958648682 ], [ 124.205810546875114, 7.888269901275635 ], [ 124.205673217773438, 7.888669967651424 ], [ 124.205398559570426, 7.888939857482967 ], [ 124.205108642578125, 7.889090061187687 ] ], [ [ 124.137252807617188, 7.856040000915527 ], [ 124.138137817382812, 7.856289863586539 ], [ 124.138870239257812, 7.856400012970028 ], [ 124.139587402343864, 7.856910228729248 ], [ 124.140403747558594, 7.857480049133244 ], [ 124.140716552734489, 7.858260154724235 ], [ 124.140556335449332, 7.858590126037598 ], [ 124.140098571777344, 7.85873985290533 ], [ 124.139312744140625, 7.858600139617977 ], [ 124.138946533203125, 7.85834980010992 ], [ 124.138557434082031, 7.858069896697998 ], [ 124.138252258300895, 7.857789993286076 ], [ 124.137908935546989, 7.857719898223877 ], [ 124.13748931884777, 7.85761022567749 ], [ 124.136901855468864, 7.857550144195613 ], [ 124.136001586914176, 7.856969833374023 ], [ 124.135841369628906, 7.85630989074707 ], [ 124.136268615722656, 7.855790138244686 ], [ 124.137252807617188, 7.856040000915527 ] ], [ [ 124.178230285644531, 7.818819999694881 ], [ 124.176551818847884, 7.819310188293571 ], [ 124.175292968750114, 7.819399833679256 ], [ 124.174606323242188, 7.819009780883846 ], [ 124.174156188964844, 7.818840026855412 ], [ 124.173660278320312, 7.818840026855412 ], [ 124.172958374023551, 7.818749904632682 ], [ 124.171943664550781, 7.818789958953971 ], [ 124.171447753906364, 7.81840991973877 ], [ 124.171157836914062, 7.817609786987418 ], [ 124.17120361328125, 7.817170143127441 ], [ 124.171836853027457, 7.816080093383789 ], [ 124.172447204589844, 7.815589904785099 ], [ 124.17266845703125, 7.815380096435604 ], [ 124.172821044921875, 7.815209865570068 ], [ 124.173736572265739, 7.814410209655819 ], [ 124.174583435058594, 7.814060211181697 ], [ 124.17579650878929, 7.813499927520809 ], [ 124.176651000976562, 7.81309986114502 ], [ 124.177993774414062, 7.813109874725399 ], [ 124.179412841797102, 7.813079833984489 ], [ 124.1805419921875, 7.813220024108887 ], [ 124.181121826171875, 7.813499927520809 ], [ 124.182098388671989, 7.81439018249506 ], [ 124.1822509765625, 7.815380096435604 ], [ 124.181793212890625, 7.81679010391241 ], [ 124.181137084961165, 7.817669868469238 ], [ 124.180633544921989, 7.817870140075684 ], [ 124.179519653320312, 7.817989826202449 ], [ 124.178863525390739, 7.818429946899471 ], [ 124.178230285644531, 7.818819999694881 ] ] ] ] } }
]
}
