{
"type": "FeatureCollection",
"name": "24 - Babuyan Channel",
"crs": { "type": "name", "properties": { "name": "urn:ogc:def:crs:OGC:1.3:CRS84" } },
"features": [
{ "type": "Feature", "properties": { "OID_": 0, "Name": "24 - Babuyan Channel", "FolderPath": "24 Fishing Grounds.kmz/24 FG", "SymbolID": 0, "AltMode": 0, "Base": 0.0, "Clamped": -1, "Extruded": 0, "Snippet": null, "PopupInfo": null, "Shape_Leng": 18.956352087199999, "Shape_Area": 20.161310014600001 }, "geometry": { "type": "MultiPolygon", "coordinates": [ [ [ [ 121.148633902000029, 18.647279680000054, 0.0 ], [ 121.015428984000096, 18.575597154000036, 0.0 ], [ 120.92650393800011, 21.596292453000046, 0.0 ], [ 127.187319805000016, 21.619511928000065, 0.0 ], [ 127.110048732000109, 18.295293311000023, 0.0 ], [ 122.348236591000045, 18.334574242000031, 0.0 ], [ 122.178116167000098, 18.479347446000077, 0.0 ], [ 122.083113655000034, 18.390323623000029, 0.0 ], [ 121.968879984000068, 18.265698644000054, 0.0 ], [ 121.550724011000057, 18.429602005000049, 0.0 ], [ 121.378988477, 18.502280315000064, 0.0 ], [ 121.283029899000098, 18.59262936600004, 0.0 ], [ 121.148633902000029, 18.647279680000054, 0.0 ] ] ] ] } }
]
}
