<?xml version="1.0" standalone="no"?>
<!DOCTYPE svg PUBLIC "-//W3C//DTD SVG 20010904//EN"
 "http://www.w3.org/TR/2001/REC-SVG-20010904/DTD/svg10.dtd">
<svg version="1.0" xmlns="http://www.w3.org/2000/svg"
 width="100.000000pt" height="100.000000pt" viewBox="0 0 100.000000 100.000000"
 preserveAspectRatio="xMidYMid meet">
<metadata>
Created by potrace 1.16, written by Peter Selinger 2001-2019
</metadata>
<g transform="translate(0.000000,100.000000) scale(0.100000,-0.100000)"
fill="#000000" stroke="none">
<path d="M359 956 c-202 -71 -329 -245 -329 -451 0 -274 225 -488 499 -473
150 9 276 77 361 198 135 193 117 430 -46 600 -128 135 -318 184 -485 126z
m324 -63 c89 -42 168 -121 210 -210 60 -129 47 -302 -33 -417 -155 -226 -468
-257 -660 -66 -224 225 -136 603 166 710 47 16 78 20 154 17 82 -2 104 -7 163
-34z"/>
<path d="M370 791 c-78 -43 -80 -43 -116 -16 -53 40 -65 31 -43 -33 8 -24 7
-37 -6 -62 -23 -45 -7 -59 38 -31 31 19 36 20 48 5 8 -10 21 -13 36 -9 13 3
23 1 23 -5 0 -21 52 -32 84 -17 17 8 51 18 76 21 62 9 108 27 115 44 11 30
-63 82 -118 82 -14 0 -36 9 -50 20 -31 25 -43 25 -87 1z m74 -10 c10 -11 37
-21 65 -25 50 -7 101 -37 101 -60 0 -14 -49 -31 -120 -42 -25 -4 -53 -13 -63
-19 -22 -16 -57 -8 -57 12 0 11 -8 14 -31 11 -20 -3 -33 0 -36 9 -7 19 -34 16
-63 -7 -36 -28 -43 -25 -24 11 15 30 15 60 -2 104 -7 17 -2 16 30 -8 31 -24
43 -28 72 -23 19 4 34 11 34 16 0 8 51 37 71 39 3 1 14 -7 23 -18z"/>
<path d="M659 597 c-14 -7 -32 -17 -40 -23 -32 -26 -58 -26 -92 0 -33 25 -58
33 -56 19 0 -5 6 -24 13 -43 10 -29 10 -41 -2 -72 -8 -21 -12 -41 -8 -45 4 -4
25 2 46 14 25 13 40 17 43 10 2 -6 15 -12 28 -12 14 -1 36 -9 49 -18 27 -19
51 -22 66 -8 5 5 44 16 87 24 83 17 107 29 107 56 0 24 -64 63 -114 68 -26 3
-52 13 -62 24 -19 21 -28 22 -65 6z m60 -16 c7 -12 26 -20 58 -25 54 -7 113
-38 113 -60 0 -16 -42 -32 -110 -42 -25 -4 -57 -13 -72 -20 -34 -17 -33 -17
-54 3 -9 10 -29 18 -43 19 -14 1 -30 3 -34 3 -5 1 -5 6 -2 11 11 18 -29 10
-55 -10 -36 -29 -42 -25 -25 18 12 29 13 45 5 66 -16 44 -12 49 21 22 36 -30
65 -33 99 -8 25 17 69 40 82 41 4 1 12 -7 17 -18z"/>
<path d="M404 391 c-23 -10 -45 -24 -48 -30 -12 -19 -53 -12 -86 15 -39 33
-54 22 -38 -29 9 -29 8 -46 -2 -77 -7 -22 -10 -43 -7 -46 3 -4 22 4 41 16 32
19 38 20 57 6 12 -8 27 -12 35 -9 7 3 21 -3 30 -12 11 -11 27 -15 43 -12 184
37 225 53 219 85 -5 25 -62 59 -112 66 -24 4 -52 16 -61 26 -22 24 -20 24 -71
1z m66 -16 c9 -8 38 -19 64 -24 51 -9 101 -40 101 -61 0 -15 -57 -38 -97 -39
-15 -1 -47 -8 -72 -16 -43 -15 -81 -12 -70 6 5 9 -14 13 -53 9 -15 -1 -23 4
-23 14 0 21 -9 20 -45 -4 -42 -28 -46 -25 -30 15 11 25 12 41 5 60 -17 44 -12
49 23 23 24 -19 40 -24 65 -20 17 2 32 8 32 14 0 9 55 37 74 38 5 0 17 -7 26
-15z"/>
</g>
</svg>
