<?xml version="1.0" standalone="no"?>
<!DOCTYPE svg PUBLIC "-//W3C//DTD SVG 20010904//EN"
 "http://www.w3.org/TR/2001/REC-SVG-20010904/DTD/svg10.dtd">
<svg version="1.0" xmlns="http://www.w3.org/2000/svg"
 width="100.000000pt" height="100.000000pt" viewBox="0 0 100.000000 100.000000"
 preserveAspectRatio="xMidYMid meet">
<metadata>
Created by potrace 1.16, written by Peter Selinger 2001-2019
</metadata>
<g transform="translate(0.000000,100.000000) scale(0.100000,-0.100000)"
fill="#000000" stroke="none">
<path d="M359 956 c-202 -71 -329 -245 -329 -451 0 -274 225 -488 499 -473
150 9 276 77 361 198 135 193 117 430 -46 600 -128 135 -318 184 -485 126z
m86 -176 c11 -12 31 -20 48 -20 44 0 117 -38 117 -60 0 -20 -35 -35 -110 -46
-25 -4 -56 -12 -70 -19 -31 -14 -60 -9 -60 12 0 12 -7 14 -30 10 -21 -5 -32
-2 -39 11 -9 15 -12 15 -48 -3 -21 -11 -41 -21 -45 -23 -4 -2 0 14 8 34 13 30
14 46 5 73 -6 19 -9 37 -7 38 2 2 17 -8 34 -22 26 -22 37 -25 67 -19 19 3 35
10 35 16 0 8 54 36 71 38 3 0 14 -9 24 -20z m273 -195 c4 -9 34 -22 65 -29 64
-15 107 -40 107 -61 0 -15 -85 -45 -127 -45 -13 0 -37 -7 -52 -14 -28 -15 -75
-11 -65 5 5 9 -1 11 -46 13 -14 1 -24 6 -22 14 3 18 -18 15 -57 -9 -41 -25
-47 -20 -26 21 13 25 14 38 6 62 -17 48 -14 51 22 24 39 -30 69 -33 91 -11 14
15 72 44 88 45 4 0 11 -7 16 -15z m-248 -210 c9 -8 38 -19 64 -24 48 -9 96
-36 104 -59 5 -15 -37 -31 -113 -43 -32 -6 -65 -15 -72 -20 -16 -14 -59 -7
-55 9 2 12 -14 16 -55 12 -15 -1 -23 4 -23 14 0 21 -3 20 -50 -9 -45 -28 -46
-28 -26 20 12 27 12 42 4 65 -14 41 -6 46 28 17 22 -18 37 -23 62 -20 17 3 32
9 32 14 0 10 50 38 69 39 8 0 22 -7 31 -15z"/>
</g>
</svg>
