<?xml version="1.0" standalone="no"?>
<!DOCTYPE svg PUBLIC "-//W3C//DTD SVG 20010904//EN"
 "http://www.w3.org/TR/2001/REC-SVG-20010904/DTD/svg10.dtd">
<svg version="1.0" xmlns="http://www.w3.org/2000/svg"
 width="100.000000pt" height="100.000000pt" viewBox="0 0 100.000000 100.000000"
 preserveAspectRatio="xMidYMid meet">
<metadata>
Created by potrace 1.16, written by Peter Selinger 2001-2019
</metadata>
<g transform="translate(0.000000,100.000000) scale(0.100000,-0.100000)"
fill="#000000" stroke="none">
<path d="M359 956 c-202 -71 -329 -245 -329 -451 0 -274 225 -488 499 -473
150 9 276 77 361 198 135 193 117 430 -46 600 -128 135 -318 184 -485 126z
m333 -69 c92 -45 157 -112 201 -205 26 -56 32 -82 35 -158 7 -142 -32 -237
-133 -333 -97 -92 -231 -134 -355 -113 -190 34 -328 172 -362 362 -21 124 21
258 113 355 98 103 181 137 330 132 88 -2 103 -6 171 -40z"/>
<path d="M533 828 c-6 -7 -14 -30 -18 -50 -6 -31 -16 -42 -59 -69 -36 -21 -56
-41 -64 -64 -7 -17 -30 -46 -52 -64 -29 -23 -40 -39 -40 -60 0 -18 -11 -38
-31 -57 -48 -45 -82 -110 -75 -140 7 -28 95 -114 142 -140 42 -23 66 -15 171
55 156 104 245 218 288 364 16 54 16 59 -2 95 l-18 37 -82 0 c-45 0 -86 5 -92
10 -5 6 -11 28 -13 50 -2 32 -7 41 -24 43 -11 2 -26 -3 -31 -10z m149 -131
c12 -19 -19 -62 -94 -129 l-74 -66 -88 24 c-49 13 -91 25 -93 28 -3 2 7 12 22
22 24 15 32 16 78 4 29 -7 57 -15 63 -17 6 -2 39 19 73 47 53 44 61 55 61 86
0 33 1 34 23 23 12 -7 25 -17 29 -22z m48 -84 l23 -42 -41 -54 c-37 -47 -132
-137 -145 -137 -3 0 -14 26 -25 59 l-20 59 69 57 c39 32 77 71 86 87 19 31 21
30 53 -29z m-275 -138 c51 -18 63 -28 79 -61 22 -46 17 -57 -47 -101 -113 -76
-277 -62 -277 25 0 33 18 61 78 124 51 53 57 53 167 13z"/>
</g>
</svg>
